33
53
49
32
31
55
48
30
54
14
45
41
33
68
45
19
78
40
59
46
18
3
41
21
56
17
37
37
75
39
43
15
15
64
34
31
36
28
47
23
29
40
22
23
36
25
35
50
49
24
27
64
29
7
52
55
46
61
71
46
34
41
17
25
19
76
24
57
30
20
19
22
36
45
41
21
64
45
25
4
1
2
13
21
18
9
48
14
23
46
8
4
25
23
6
0
41
17
39
0
40
22
16
40
0
22
0
9
0
0
