10 24
39 3
5 19
10 12
23 25
17 13
47 16
18 14
21 16
22 23
23 12
10 9
8 5
7 6
6 24
5 11
6 3
17 9
4 18
14 7
13 18
0 24
10 22
29 10
22 24
29 16
30 14
1 17
35 7
18 13
5 22
31 6
0 10
10 8
2 6
10 5
2 8
11 21
14 21
3 18
10 15
4 1
15 9
15 4
10 29
4 4
5 5
29 8
0 2
52 15
10 2
14 20
24 21
52 10
51 18
10 2
2 3
2 18
2 7
1 6
1 17
0 15
4 20
0 5
1 18
2 22
10 2
0 10
2 18
1 23
3 12
0 7
3 20
4 4
1 8
4 4
4 21
10 9
13 16
10 25
9 24
17 21
8 2
0 6
17 14
12 4
9 1
14 1
10 35
66 25
60 13
18 19
27 3
5 10
23 8
22 13
37 1
9 25
34 9
10 36
21 13
69 19
37 4
71 12
19 5
71 5
28 14
29 14
40 16
52 19
10 9
7 20
8 18
8 25
12 21
15 16
18 23
18 20
8 6
5 5
0 20
10 3
4 15
5 8
0 5
4 12
1 4
6 19
1 19
5 23
1 11
0 2
10 22
15 4
5 21
26 20
21 23
35 9
1 8
38 25
42 13
14 1
21 3
10 20
32 1
3 22
16 7
10 6
10 20
12 14
8 7
11 22
5 24
39 19
10 31
16 2
38 10
24 16
11 2
51 12
13 21
33 5
21 13
11 24
37 10
10 10
5 11
15 13
0 2
13 23
4 6
20 25
12 5
16 12
11 18
17 4
10 8
2 10
13 21
0 23
3 22
16 6
10 18
1 23
15 1
9 23
10 16
10 3
1 14
2 16
3 16
3 7
4 12
5 6
4 5
2 20
1 2
0 6
10 21
14 5
2 19
1 22
29 5
16 12
27 2
39 20
2 3
22 10
18 18
10 29
43 15
19 9
51 24
26 9
34 24
20 9
16 24
15 5
12 22
38 5
9 33
35 14
51 25
6 4
17 14
42 4
59 12
61 3
66 1
59 8
9 10
16 11
17 22
15 5
2 3
20 24
19 3
14 23
13 19
17 3
9 13
24 1
17 23
9 10
5 11
14 15
2 16
18 5
11 25
12 11
9 2
3 11
2 1
3 22
4 15
2 14
2 21
3 20
4 16
2 16
9 34
48 2
53 12
30 11
15 24
41 7
12 16
57 22
30 3
0 16
9 23
23 8
45 19
32 9
14 12
29 22
25 20
39 3
9 5
41 16
9 12
20 2
5 7
18 8
2 13
11 15
5 13
15 13
4 11
19 15
9 27
10 17
5 9
42 14
18 17
45 10
41 18
6 11
44 13
15 10
9 18
6 21
24 24
5 24
7 15
6 8
29 8
1 22
10 1
19 19
9 35
9 14
22 9
20 7
27 9
21 25
27 15
52 14
67 20
40 23
9 16
13 8
20 18
28 8
0 22
17 25
29 23
10 7
1 13
29 5
9 27
43 1
51 17
36 3
26 15
26 5
23 6
53 22
45 13
37 5
9 34
25 12
54 2
21 8
52 8
46 25
12 3
16 12
58 19
56 14
9 22
29 12
5 10
16 1
20 15
4 19
3 19
0 8
2 8
17 6
9 34
44 2
10 12
33 19
54 15
45 5
32 13
2 14
36 11
23 20
9 30
45 11
60 17
27 19
19 4
37 17
9 19
16 12
60 6
14 9
9 19
33 22
18 9
24 15
27 5
13 6
10 19
2 11
26 21
11 25
9 33
60 2
56 3
65 7
25 11
10 6
38 19
25 18
19 22
63 22
8 31
14 23
59 10
28 9
14 24
55 14
8 1
57 24
44 10
8 19
24 25
27 11
12 5
13 19
23 12
2 4
13 13
30 9
8 18
8 24
34 23
5 5
36 22
20 16
17 22
17 20
33 2
8 8
1 9
0 10
14 7
5 21
14 9
15 24
9 2
12 16
8 29
53 15
24 7
53 17
42 10
12 1
43 10
10 7
5 14
8 6
1 18
10 24
8 7
9 23
6 1
5 5
4 5
6 7
8 22
42 20
11 7
3 21
8 8
26 13
20 22
30 5
22 18
8 24
19 8
24 7
42 16
32 9
11 25
38 23
41 2
39 3
8 14
1 8
19 22
27 14
26 8
5 11
6 11
8 16
7 15
8 21
25 21
38 1
5 15
9 16
37 11
3 19
9 4
21 22
8 23
18 14
3 16
12 13
32 9
10 9
11 8
33 3
5 20
8 24
36 25
7 4
22 24
47 11
14 3
5 2
34 3
24 13
8 10
5 8
19 3
1 17
16 19
17 10
0 2
20 17
10 5
8 17
8 19
33 23
0 23
4 21
5 1
17 9
27 3
32 22
8 6
9 15
9 22
0 11
1 5
9 13
10 17
12 3
1 13
8 27
29 18
34 24
20 7
46 15
40 14
36 23
32 13
19 4
7 16
29 13
2 16
23 21
3 16
7 20
31 12
17 2
7 1
2 7
0 18
0 15
1 5
2 1
0 17
2 14
7 10
10 21
17 20
0 25
10 16
9 2
2 9
12 20
7 28
48 22
7 16
14 10
13 24
11 11
1 21
44 14
7 10
2 25
5 6
16 19
14 11
3 24
4 22
7 3
7 5
8 7
5 16
0 1
8 5
4 15
5 25
0 20
7 6
1 20
6 2
3 9
8 9
1 5
5 7
8 17
7 4
8 13
2 5
0 19
7 3
8 8
1 17
5 3
7 8
12 24
16 13
8 9
16 22
8 17
14 2
11 6
7 22
10 24
25 6
24 10
13 11
17 25
34 6
26 3
7 7
10 2
8 15
10 9
13 14
7 19
6 11
5 6
7 15
24 17
21 21
8 18
25 22
0 19
6 25
0 14
7 23
20 20
16 20
18 24
37 9
40 13
31 20
35 25
7 20
1 15
32 6
8 16
0 16
30 7
8 10
27 13
6 3
6 24
3 20
3 5
4 25
0 10
5 19
6 18
17 20
17 5
24 25
28 20
28 11
24 4
6 14
8 13
20 13
16 15
4 6
9 5
27 8
6 6
4 17
6 22
4 6
7 5
11 4
9 23
6 13
23 8
19 25
15 15
23 4
2 24
9 12
6 19
10 18
4 15
22 21
6 17
36 5
8 13
6 6
6 18
9 7
4 10
6 7
0 20
3 21
6 15
11 21
24 10
25 2
30 22
20 1
21 23
6 20
15 3
23 4
10 1
12 25
1 14
7 25
6 11
11 19
16 17
0 15
5 14
1 16
19 3
6 18
6 4
19 5
33 22
23 14
4 21
19 22
6 13
22 10
6 1
1 3
15 23
18 15
20 9
5 4
1 1
8 17
8 25
7 22
6 18
5 15
23 8
27 11
27 18
0 2
28 16
5 14
22 21
20 8
8 13
9 2
27 10
5 2
3 1
2 10
1 16
4 14
0 5
5 14
21 15
3 2
25 2
10 15
7 16
5 7
2 1
9 17
2 8
14 7
11 20
5 12
3 4
2 20
19 19
6 24
18 13
5 20
2 14
22 20
22 6
34 12
32 3
5 4
6 21
5 6
7 18
6 24
0 23
5 19
28 17
3 24
25 23
12 12
3 10
4 6
7 4
6 8
8 11
10 8
4 3
4 5
6 7
3 4
5 10
4 13
9 14
20 16
4 7
3 11
4 2
0 23
3 5
4 14
4 10
4 13
14 11
15 16
8 6
19 18
4 9
10 20
13 10
18 16
10 9
4 13
0 23
6 2
7 13
4 5
4 12
0 9
22 17
0 8
19 16
3 9
7 19
1 20
7 10
3 3
6 4
6 4
6 18
3 1
0 8
0 10
1 22
3 12
9 22
24 8
15 2
3 1
2 19
0 13
0 3
3 6
9 14
1 21
2 19
2 5
8 11
6 13
2 7
5 22
13 17
2 4
8 16
5 10
2 5
6 1
4 9
1 4
7 20
1 2
3 5
-1 -1
