70
48
55
63
106
137
65
76
25
43
58
103
86
135
46
64
37
63
45
75
66
84
43
65
85
128
61
77
55
69
63
63
47
93
65
86
57
104
109
76
37
43
58
75
82
41
59
53
34
52
57
160
50
48
49
53
69
82
38
50
49
60
68
32
53
84
97
104
46
32
50
54
125
61
76
47
89
50
86
46
64
111
36
48
29
74
100
55
75
43
97
129
20
77
102
32
102
36
98
74
58
48
83
85
107
56
91
42
66
60
86
68
75
109
58
66
61
85
85
78
67
72
78
103
153
70
74
40
32
47
99
49
71
73
42
174
104
46
53
77
74
43
87
47
63
95
65
67
53
42
59
57
89
49
58
68
57
50
50
36
33
52
46
63
94
50
68
63
70
70
63
111
80
67
115
33
54
64
33
44
32
26
83
89
105
50
41
78
67
77
53
82
105
51
40
42
63
63
61
65
65
83
71
63
66
43
53
52
63
83
58
74
90
59
79
77
55
39
66
81
52
61
47
57
66
64
43
68
61
58
76
65
60
43
46
69
35
39
69
91
40
68
45
85
61
60
65
28
29
69
90
36
34
59
56
64
38
53
190
29
98
44
69
60
57
70
87
33
71
95
98
40
52
55
62
72
38
45
83
103
72
43
52
60
24
63
45
43
45
53
71
70
60
58
83
80
43
55
46
61
41
68
83
48
72
96
39
40
48
46
15
53
52
58
89
74
35
79
34
44
59
48
87
55
91
26
36
24
69
45
40
76
39
56
42
74
52
32
58
52
61
61
48
25
22
98
48
24
44
42
51
58
27
50
49
89
60
64
77
51
33
42
33
60
29
44
60
25
59
51
34
104
39
67
59
53
71
39
59
71
77
27
75
24
28
82
49
63
66
74
37
40
68
27
32
66
33
34
84
35
52
43
47
84
43
37
55
35
48
26
22
49
43
47
44
39
18
28
46
17
84
64
61
30
43
66
54
47
59
61
37
81
65
75
33
45
81
30
44
59
55
55
56
90
86
139
52
92
40
55
75
29
67
63
36
78
35
23
60
40
38
26
60
55
28
45
61
68
29
59
72
22
66
59
43
23
49
52
46
40
24
66
28
43
42
27
53
38
66
29
72
29
64
32
53
31
24
40
27
59
23
29
10
64
38
58
59
32
32
42
75
45
58
77
40
39
101
55
19
29
46
76
28
40
76
24
54
27
55
59
45
22
58
52
47
36
59
44
33
30
57
28
59
11
21
27
61
10
83
60
70
50
64
30
32
40
55
36
34
33
31
22
25
24
25
44
12
42
54
12
55
27
30
64
35
56
64
25
20
18
45
44
55
60
17
35
19
13
39
49
39
38
48
41
21
41
29
52
48
27
43
37
49
67
41
9
32
42
23
46
21
41
22
21
13
24
36
25
25
36
21
19
2
46
0
33
0
31
19
27
50
60
14
16
22
0
4
5
28
17
22
12
25
19
32
0
35
0
4
10
