25 84
84 15000
61 3
95 19
1 12
68 25
59 13
42 16
56 14
40 16
140 23
141 12
21 18
16 8
161 13
146 18
56 5
64 23
152 20
56 19
161 12
37 5
11 22
27 10
96 24
156 16
25 71
71 15000
118 2
13 6
106 24
50 21
71 7
114 1
114 3
105 6
43 5
37 8
77 21
130 21
55 18
100 15
72 1
106 9
103 4
14 10
46 2
113 25
127 11
108 19
20 13
16 12
25 95
95 15000
94 21
161 10
56 18
164 23
10 18
178 3
114 2
80 12
113 16
182 20
7 16
128 7
53 23
126 7
27 10
107 18
74 23
151 12
109 7
12 20
41 4
10 8
190 4
9 21
25 69
69 15000
3 16
26 25
104 24
35 21
66 2
7 6
18 14
133 4
44 1
122 1
32 15
49 15
121 7
93 17
110 16
45 12
4 2
113 4
102 8
4 22
112 21
37 13
91 19
14 4
25 44
44 15000
29 4
48 2
66 19
73 14
53 7
20 5
84 4
81 20
0 18
52 25
84 21
70 16
34 23
0 20
9 6
78 5
29 20
15 18
86 23
88 6
7 24
80 23
59 25
67 22
25 69
69 15000
105 23
22 11
22 2
75 6
112 6
79 12
64 2
29 16
119 17
120 9
57 13
84 25
55 12
25 25
20 1
81 22
105 7
82 6
11 20
36 14
62 7
77 22
3 24
33 19
25 91
91 15000
130 2
104 10
93 16
176 2
39 12
85 21
111 5
132 13
41 24
64 10
27 12
137 18
74 7
105 14
135 22
124 20
166 22
98 15
100 16
11 6
129 3
152 10
19 21
43 23
25 70
70 15000
56 7
18 10
109 23
95 1
124 11
86 25
37 18
26 14
38 16
57 16
137 7
48 12
54 6
50 5
83 20
111 2
102 6
76 18
137 10
64 6
14 18
5 14
136 5
120 10
25 45
45 15000
20 3
79 10
67 18
63 4
37 23
4 9
64 12
14 4
17 4
64 9
60 16
80 18
70 19
28 1
19 14
53 25
60 4
51 14
17 4
85 12
36 3
38 1
20 8
18 12
25 61
61 15000
29 22
117 5
44 3
71 24
49 3
44 23
67 19
113 3
75 4
68 7
38 14
91 2
32 10
31 18
66 3
114 5
25 15
92 5
29 11
72 1
31 22
122 15
77 14
93 21
25 44
44 15000
16 5
74 8
15 17
37 2
7 12
78 11
35 24
16 7
69 16
53 22
81 3
43 16
55 25
71 15
30 6
0 13
45 1
15 2
45 17
62 4
32 22
62 23
73 2
5 7
25 94
94 15000
160 3
38 12
87 6
158 16
135 5
5 20
171 25
128 17
23 9
90 14
97 17
187 10
65 18
24 11
55 13
168 10
116 19
80 9
124 9
116 13
90 9
76 4
165 15
90 5
25 1
1 15000
1 19
1 1
0 25
2 8
1 19
0 21
1 18
1 20
1 23
1 24
1 7
1 8
2 18
1 8
0 22
2 25
2 23
1 7
1 13
2 5
2 24
2 7
1 17
1 7
25 40
40 15000
53 5
38 6
12 22
39 13
25 5
69 11
50 5
72 9
17 10
66 20
60 12
14 1
74 11
18 6
69 25
65 12
59 10
79 1
74 15
4 19
39 19
0 8
11 8
80 6
25 94
94 15000
92 2
148 12
21 19
78 15
177 5
53 13
116 14
138 11
152 20
83 22
2 13
45 4
119 24
38 1
178 11
144 18
117 14
101 16
35 6
15 22
69 9
129 15
183 5
130 6
25 51
51 15000
44 4
27 7
30 15
62 21
27 2
2 3
10 7
98 11
67 6
73 19
1 18
63 22
31 22
4 10
102 3
35 16
87 23
83 6
58 23
25 6
13 15
61 23
98 25
0 11
25 33
33 15000
5 5
10 24
59 16
63 10
65 13
41 17
24 24
33 23
19 5
53 22
21 16
44 22
26 20
18 2
26 4
38 8
14 4
31 23
17 10
45 10
44 17
45 24
31 3
43 15
25 60
60 15000
17 11
98 25
73 15
26 4
11 4
18 15
41 15
66 18
15 24
59 7
96 23
77 1
30 5
15 5
33 7
11 8
94 7
73 4
99 9
84 7
22 16
38 1
0 23
71 2
25 98
98 15000
174 10
49 7
3 8
62 21
79 13
188 9
64 5
111 10
171 8
22 22
177 14
95 8
193 11
65 11
56 16
20 15
160 17
21 18
108 4
48 1
159 12
37 19
106 13
33 8
25 22
22 15000
15 6
13 1
5 21
12 4
33 23
18 1
42 23
12 2
44 22
36 25
35 4
9 24
3 11
23 3
15 2
34 3
31 13
12 25
12 17
37 18
26 11
33 24
14 21
21 6
25 67
67 15000
58 5
13 9
128 4
117 6
67 25
25 1
20 23
43 13
127 8
131 19
79 15
94 22
44 11
27 5
56 13
112 17
121 3
100 13
47 25
87 5
68 16
36 2
99 16
73 17
25 73
73 15000
86 13
119 4
57 6
120 7
121 17
15 3
139 12
47 18
77 9
4 13
2 7
33 18
105 15
79 5
119 1
129 17
143 14
86 12
89 7
16 11
122 15
104 15
63 12
92 15
25 70
70 15000
31 3
82 19
111 15
83 7
109 15
33 24
9 3
65 9
68 25
83 6
28 19
113 11
102 24
55 22
97 3
112 21
69 12
116 24
1 1
53 1
88 18
95 10
66 15
37 20
25 39
39 15000
36 2
47 20
15 19
47 7
62 1
56 12
54 13
42 5
7 19
57 3
13 8
74 17
38 3
37 23
75 8
6 1
51 23
54 19
40 4
21 25
12 19
55 24
18 6
41 10
25 99
99 15000
147 13
182 20
32 17
42 11
156 2
50 15
116 9
157 14
194 19
83 11
167 6
26 14
117 14
36 22
151 5
109 6
35 21
6 25
170 5
123 20
191 20
29 24
164 9
166 13
25 80
80 15000
36 25
76 2
68 15
11 6
67 16
6 16
4 7
69 10
75 13
22 13
127 19
94 18
120 20
139 15
98 14
144 4
38 20
98 5
49 25
106 20
135 11
27 4
44 1
56 3
25 38
38 15000
7 15
43 6
70 5
16 8
58 4
17 18
68 23
32 19
43 12
45 4
50 1
17 8
40 25
64 15
29 4
48 24
68 12
31 8
7 18
42 22
76 6
57 20
18 24
43 9
25 85
85 15000
129 13
95 18
14 16
149 9
127 21
59 23
122 21
22 10
29 2
155 22
109 1
89 23
151 15
117 17
33 13
114 22
56 9
7 12
105 21
149 19
160 17
1 15
44 14
91 16
25 40
40 15000
10 14
34 4
74 5
2 22
8 14
36 21
14 22
0 2
17 9
64 7
65 21
36 22
32 12
8 4
55 1
53 17
62 25
16 22
15 18
64 14
78 20
47 1
36 8
23 5
25 91
91 15000
85 11
54 24
152 17
72 21
147 16
137 2
159 1
29 10
17 16
146 14
75 5
110 7
4 24
109 25
24 6
76 5
70 12
80 1
141 17
38 8
14 7
122 20
64 4
98 3
25 95
95 15000
116 19
117 24
100 13
82 19
104 14
113 21
113 24
32 19
127 14
183 21
92 6
40 18
27 24
52 23
130 4
30 23
53 23
30 17
76 13
7 3
50 4
91 8
182 11
48 8
25 99
99 15000
111 5
77 7
106 4
40 10
39 23
51 9
61 11
13 15
4 23
25 23
154 5
108 14
14 10
81 15
149 1
185 12
194 2
28 17
177 20
50 10
142 16
135 9
147 2
54 14
25 27
27 15000
0 13
41 5
18 1
43 23
6 1
27 20
0 21
46 19
30 20
19 10
16 9
33 13
18 12
42 8
39 8
15 10
14 22
25 10
51 25
12 16
6 17
1 19
17 13
46 3
25 82
82 15000
65 14
44 21
141 19
114 4
100 9
102 18
140 22
58 17
111 1
70 13
9 8
160 1
103 9
94 6
34 19
13 5
17 20
140 24
48 2
56 24
146 16
83 7
53 9
29 3
25 36
36 15000
16 15
35 22
27 23
71 16
17 24
22 8
39 19
35 7
65 15
51 22
2 22
43 9
48 18
13 1
1 25
39 9
34 8
52 25
27 24
16 18
15 5
40 11
7 16
67 19
25 56
56 15000
50 17
92 12
97 11
96 21
96 5
73 9
86 22
92 23
49 3
76 4
49 21
54 24
79 14
84 11
83 17
80 24
78 18
71 11
10 14
82 13
63 21
21 11
105 2
77 24
25 4
4 15000
1 5
2 8
0 24
3 22
7 18
7 13
7 6
8 5
8 10
8 7
4 24
4 14
3 14
3 25
7 10
2 12
7 6
5 24
5 1
2 1
2 3
3 5
2 10
3 1
25 95
95 15000
51 9
48 16
17 2
180 24
21 16
57 22
74 10
83 1
121 12
92 9
59 7
33 11
112 7
166 4
11 22
180 9
71 11
114 16
3 18
152 2
81 14
1 6
120 13
26 8
25 49
49 15000
40 18
91 20
78 20
90 4
13 19
14 11
38 6
33 5
58 8
92 1
40 22
49 14
66 16
5 10
56 1
98 12
24 18
76 17
24 21
67 5
84 18
28 6
43 10
83 9
25 95
95 15000
144 9
13 3
75 10
67 13
10 8
131 3
136 24
110 12
32 16
185 2
165 7
4 5
10 23
112 8
52 14
112 13
9 21
15 20
77 15
112 8
167 20
103 16
111 10
167 25
25 25
25 15000
32 1
29 11
33 18
32 15
11 17
43 12
43 11
49 16
24 6
24 17
25 7
29 9
23 7
48 2
35 25
4 16
49 17
41 20
29 10
14 12
8 7
26 23
2 11
17 21
25 68
68 15000
1 12
101 18
93 17
23 11
29 13
103 20
60 13
104 10
25 18
100 25
73 7
54 9
10 2
25 18
37 23
43 2
116 20
66 14
36 7
86 6
30 23
97 14
94 22
83 2
25 15
15 15000
11 4
30 3
11 1
11 9
9 3
5 25
0 2
2 11
25 25
24 5
22 4
2 25
7 15
1 2
12 17
3 10
20 10
26 2
14 22
23 14
10 10
6 16
30 1
4 7
25 27
27 15000
30 13
18 4
39 5
38 4
9 10
49 12
32 6
17 12
22 10
12 16
50 11
25 8
19 8
42 2
18 2
32 11
3 8
18 3
19 22
28 9
15 5
24 8
4 3
5 2
25 14
14 15000
14 19
13 5
25 18
15 19
5 8
4 14
24 14
5 22
9 7
26 25
23 20
8 21
27 15
6 20
19 9
26 5
4 21
9 15
13 15
4 2
28 11
2 14
3 19
23 2
25 2
2 15000
0 1
4 17
1 15
1 23
0 2
4 4
0 16
2 6
3 24
0 16
0 22
1 18
3 5
0 9
0 19
1 11
3 6
1 2
4 11
1 17
3 11
2 24
0 7
1 1
25 30
30 15000
50 18
57 25
46 2
30 15
37 23
50 12
25 18
30 16
19 10
28 9
2 4
60 23
47 20
23 7
46 1
44 4
48 22
57 6
19 20
15 18
1 4
5 5
23 12
20 20
25 46
46 15000
82 3
17 12
80 6
88 20
12 22
46 8
89 1
66 5
20 9
31 5
92 23
59 11
8 5
36 16
71 3
81 11
37 22
52 5
81 13
21 9
19 24
24 20
55 22
69 9
25 82
82 15000
156 13
3 4
97 2
133 19
4 24
65 15
131 8
12 8
27 5
76 20
80 20
42 4
162 2
133 11
98 12
111 10
80 8
85 15
78 24
103 20
28 6
115 11
144 9
34 22
25 13
13 15000
8 19
9 1
8 21
21 4
5 25
18 13
9 17
14 25
8 5
12 9
15 5
18 20
5 19
2 25
10 7
0 19
25 6
24 2
7 12
5 4
7 12
13 6
19 9
10 15
24 78
78 15000
32 23
149 21
96 25
47 25
45 12
130 19
23 10
151 8
44 22
23 19
151 17
88 14
69 12
128 20
40 11
90 9
67 13
106 16
42 18
26 24
1 6
53 7
75 11
24 7
7 15000
8 7
7 18
9 21
5 25
1 14
11 3
0 7
0 17
14 25
4 7
8 12
0 14
1 3
9 24
3 17
3 18
10 18
4 10
3 12
0 22
9 7
3 7
3 11
24 80
80 15000
93 13
5 11
71 8
77 16
117 12
39 25
131 15
62 22
107 10
72 1
45 19
44 19
108 18
139 2
10 4
37 14
10 20
141 20
88 10
32 6
98 8
57 1
89 21
24 47
47 15000
83 7
69 15
23 25
10 24
59 20
43 23
14 23
77 18
24 20
73 10
93 5
0 4
45 6
54 1
54 7
18 18
93 3
21 19
79 9
79 24
48 13
0 8
66 20
24 31
31 15000
20 16
42 15
35 2
31 17
24 17
3 4
45 10
40 16
27 5
55 18
62 8
49 9
54 2
12 20
44 2
53 18
58 20
57 6
29 19
31 24
16 4
2 10
9 3
24 19
19 15000
10 9
22 9
18 7
33 4
27 25
2 15
17 13
8 7
20 11
2 10
32 11
22 8
36 15
10 6
14 13
9 18
34 9
9 19
29 22
36 13
27 10
5 13
1 18
24 4
4 15000
3 3
6 13
7 21
8 19
0 12
5 25
7 17
7 10
1 19
5 12
6 8
1 22
7 21
4 18
6 22
0 18
8 24
3 11
6 4
2 14
1 10
8 10
7 25
24 14
14 15000
1 18
9 6
0 14
7 3
4 13
26 12
22 2
1 24
27 1
2 15
3 10
9 12
25 6
24 13
23 3
15 4
19 12
1 1
18 3
3 22
22 8
12 24
25 12
24 85
85 15000
37 14
54 3
5 14
108 25
58 5
143 5
87 4
104 18
168 3
42 3
97 5
54 1
69 16
6 20
42 24
18 16
61 22
77 25
37 19
89 5
51 2
133 13
47 25
24 42
42 15000
34 3
48 12
1 13
82 10
41 10
76 6
39 20
75 2
17 24
80 9
40 15
63 15
54 12
52 4
43 2
62 3
50 18
16 13
69 9
1 18
14 18
15 6
73 1
24 68
68 15000
52 24
79 8
62 19
20 1
42 4
121 11
22 7
101 2
39 12
69 24
15 3
99 11
46 16
91 5
54 13
2 5
56 14
75 25
88 4
62 17
74 5
41 9
22 22
24 21
21 15000
24 11
10 25
25 9
12 16
23 14
7 12
25 18
9 1
24 13
11 7
10 18
39 14
21 13
38 10
3 16
0 23
42 2
15 8
25 20
25 18
20 4
22 3
24 3
24 39
39 15000
15 15
42 12
6 11
18 4
10 9
61 23
34 13
34 8
15 22
24 23
52 25
12 1
46 3
19 14
35 6
20 6
37 11
46 12
14 14
6 9
46 12
56 9
8 3
24 74
74 15000
133 1
36 16
116 23
54 9
45 16
93 21
82 19
118 23
19 1
76 4
22 5
115 9
92 9
108 11
125 21
61 1
1 1
109 6
87 6
51 7
38 25
74 14
24 20
24 50
50 15000
86 22
89 18
42 9
17 4
42 21
55 1
17 17
88 7
58 5
6 19
17 5
73 13
22 8
58 16
83 13
55 16
20 8
68 6
30 23
49 8
97 7
58 24
80 12
24 32
32 15000
29 19
7 8
8 7
20 13
63 25
60 2
19 20
11 22
35 15
51 13
3 4
52 16
32 6
12 23
59 12
58 19
16 9
52 7
11 20
39 3
5 2
18 2
58 10
24 41
41 15000
36 1
65 20
1 10
7 25
79 24
10 7
69 11
18 23
64 21
18 25
14 21
54 16
26 23
75 19
27 6
61 5
61 22
5 17
30 15
14 18
52 18
75 17
39 13
24 65
65 15000
99 10
52 22
46 14
49 14
37 15
29 1
9 15
37 18
45 17
61 16
68 7
17 17
59 1
103 14
15 7
19 2
58 20
27 14
83 17
107 17
38 12
104 21
65 11
24 95
95 15000
24 2
53 14
122 13
49 19
68 24
126 21
130 19
62 8
168 22
163 25
83 24
167 24
164 15
0 2
86 3
91 15
10 23
169 9
67 2
50 20
141 16
118 7
172 18
24 30
30 15000
13 15
7 21
24 20
56 21
5 15
25 5
32 14
19 22
57 20
2 3
31 6
23 25
4 22
29 14
43 9
59 3
38 1
34 22
43 23
14 23
30 3
51 19
34 24
24 9
9 15000
0 19
17 17
18 22
15 24
13 20
3 22
0 3
15 6
16 4
9 23
16 5
4 23
11 19
9 12
15 2
15 24
14 21
10 22
14 13
3 25
14 14
12 11
10 23
24 89
89 15000
89 1
68 19
28 5
8 1
171 2
170 9
77 5
7 13
115 8
104 23
53 17
57 2
6 9
169 13
80 24
171 20
131 5
59 2
61 23
10 6
178 9
108 12
57 3
24 88
88 15000
134 10
45 15
9 21
16 16
55 19
85 8
27 15
144 16
154 19
133 18
81 2
17 9
62 6
168 17
115 2
57 15
86 22
162 2
11 17
56 15
45 11
70 6
58 16
24 32
32 15000
27 9
43 13
28 8
51 22
16 20
26 3
6 25
41 6
32 19
11 16
22 3
59 4
34 22
19 22
27 20
6 18
44 25
16 18
8 18
40 23
51 13
59 3
41 22
24 13
13 15000
1 17
6 17
26 25
3 11
8 23
25 10
23 12
4 16
5 8
9 11
19 15
20 15
23 16
14 6
19 15
11 5
3 12
16 13
20 23
17 1
10 15
8 21
7 18
24 55
55 15000
27 25
71 5
89 1
4 9
86 21
93 10
108 14
24 6
100 14
14 8
90 2
44 2
66 22
29 21
19 8
31 17
71 17
68 4
9 4
36 22
49 14
68 3
5 8
24 13
13 15000
11 21
3 9
14 13
15 24
17 15
11 8
15 24
25 8
4 9
18 13
16 9
12 24
15 16
25 12
24 11
24 23
8 7
12 6
0 1
26 9
5 20
0 5
26 11
24 2
2 15000
1 21
1 14
2 1
3 21
1 7
1 24
2 14
0 25
3 5
1 4
0 7
3 11
2 5
0 3
1 16
0 23
3 8
2 11
2 2
3 19
2 12
3 10
1 15
24 24
24 15000
2 19
32 3
24 24
2 6
7 18
5 25
35 6
17 16
9 25
1 5
43 7
0 2
24 1
27 2
39 14
0 2
40 3
25 4
47 19
17 1
10 24
7 3
45 19
24 7
7 15000
9 18
2 4
8 4
12 3
3 20
6 20
11 15
10 25
2 11
14 3
7 1
9 15
11 16
11 16
1 10
4 21
2 8
6 3
10 21
1 7
5 8
10 14
1 9
24 73
73 15000
94 19
56 25
84 17
110 23
113 7
43 22
96 25
104 2
10 16
86 7
81 1
96 9
142 21
99 6
136 22
124 17
123 11
62 24
23 9
27 9
108 11
96 23
141 16
24 32
32 15000
43 6
8 22
64 4
9 21
55 7
33 1
21 5
9 18
20 6
57 19
9 23
26 20
14 4
13 14
40 19
2 7
45 17
17 13
61 14
37 18
24 16
34 22
4 15
24 71
71 15000
141 22
94 10
39 1
87 2
45 7
5 5
15 1
79 5
135 11
30 16
62 23
102 1
46 15
138 14
87 12
129 25
71 7
70 15
8 12
1 25
18 25
25 16
31 23
24 57
57 15000
45 8
56 21
21 4
37 17
95 9
73 11
46 25
34 18
78 23
37 23
12 14
7 7
7 17
36 1
18 10
62 24
43 6
35 10
23 15
108 5
47 17
59 16
18 6
24 96
96 15000
117 5
76 2
6 1
34 20
124 12
55 13
12 18
27 8
37 17
89 23
100 18
191 6
16 19
108 6
69 5
82 16
138 1
78 23
39 14
78 13
41 24
124 9
155 13
24 22
22 15000
37 4
6 2
25 14
3 11
10 23
34 12
30 15
18 3
0 6
20 23
2 9
14 23
35 13
43 19
9 12
16 10
19 8
35 20
36 17
12 4
8 17
36 1
7 20
24 60
60 15000
114 25
17 6
119 10
96 7
114 10
63 15
113 16
109 2
0 9
74 4
120 4
28 11
85 5
26 21
3 22
4 20
89 2
56 5
103 21
70 7
91 16
39 25
98 24
24 37
37 15000
66 8
64 21
65 18
57 1
37 14
29 11
2 1
10 22
72 14
49 5
50 22
64 7
53 7
4 5
16 3
54 8
61 20
29 3
38 15
54 4
29 9
13 7
35 1
24 19
19 15000
16 15
4 15
1 1
17 24
31 13
38 10
1 9
37 13
6 10
1 25
22 9
11 4
19 15
11 22
26 19
16 10
11 5
16 25
1 5
5 10
26 4
7 22
0 9
24 80
80 15000
140 21
77 8
6 13
122 24
56 3
24 24
94 10
4 14
18 5
56 19
155 20
122 22
135 21
140 9
11 3
112 16
119 24
158 18
129 13
24 16
136 7
150 21
103 16
24 30
30 15000
43 23
7 5
56 21
9 5
51 19
9 19
4 25
55 20
18 15
46 16
42 9
8 20
37 14
7 20
36 3
17 20
4 4
2 9
35 23
15 8
18 13
47 21
55 17
24 85
85 15000
88 7
37 3
103 18
14 6
80 1
154 12
53 19
142 4
118 22
3 4
93 4
87 6
139 5
133 19
162 25
10 8
17 20
0 17
15 20
125 8
50 15
155 6
4 13
24 62
62 15000
104 11
114 8
58 21
50 14
66 7
121 13
26 22
121 9
28 18
70 20
56 17
67 14
63 10
109 20
119 24
81 24
83 24
106 17
118 9
107 12
41 4
73 19
1 21
24 73
73 15000
10 13
116 2
69 16
110 10
114 6
61 25
95 20
140 23
40 7
128 22
22 14
51 11
36 9
133 1
79 9
119 16
53 5
84 19
29 13
24 25
112 25
66 19
79 10
24 75
75 15000
32 18
9 22
57 15
109 4
98 10
118 24
94 25
50 12
85 10
83 16
67 18
11 6
106 23
61 8
130 20
76 19
100 4
105 5
20 18
36 16
39 25
17 24
40 21
24 91
91 15000
125 6
52 15
78 10
22 16
51 11
98 8
2 20
107 22
75 14
45 12
136 7
141 25
91 21
107 10
172 12
62 21
115 13
33 3
7 25
36 22
90 21
14 13
34 17
24 66
66 15000
46 7
73 13
19 6
69 17
51 4
37 2
88 19
73 24
32 12
45 15
23 9
97 7
61 8
33 9
59 6
81 1
114 18
32 4
64 22
107 17
83 4
22 5
114 19
24 62
62 15000
9 5
89 1
14 25
85 24
69 19
112 3
44 21
71 22
8 16
10 15
117 7
10 9
110 15
54 15
38 23
42 25
103 7
99 19
80 12
18 2
106 6
104 3
102 3
23 84
84 15000
136 20
51 3
68 20
28 20
124 2
68 20
59 23
99 16
48 22
103 22
138 6
120 6
55 22
46 17
104 14
17 13
75 5
124 22
34 2
154 6
97 17
145 22
23 18
18 15000
35 13
17 13
8 15
24 9
29 24
5 3
4 16
25 2
36 16
15 14
28 7
2 8
2 20
19 16
14 10
6 13
27 2
34 2
17 19
16 22
16 12
26 5
23 60
60 15000
63 6
112 19
47 2
4 23
102 7
98 11
82 14
3 6
32 19
45 22
9 5
73 14
3 11
58 7
13 13
49 16
56 22
30 9
72 10
57 14
106 4
19 10
23 81
81 15000
151 15
68 4
127 11
42 25
47 15
94 10
150 2
46 11
55 12
154 9
33 16
47 6
43 22
128 1
152 10
79 7
137 7
122 21
10 11
50 16
142 16
91 1
23 51
51 15000
52 11
40 13
8 13
81 8
71 16
44 17
69 7
1 23
85 21
77 7
77 20
77 18
6 16
30 7
85 18
47 19
80 2
13 23
8 17
98 10
38 12
32 22
23 70
70 15000
5 21
29 16
112 3
37 15
100 15
116 18
45 12
9 4
46 6
138 15
119 11
18 3
92 15
68 6
139 10
133 13
130 23
110 2
99 2
116 2
75 24
138 2
23 51
51 15000
94 8
77 14
3 13
84 5
11 6
92 8
68 3
101 3
14 14
6 2
22 11
48 19
61 7
91 2
16 15
96 13
0 11
99 17
48 5
84 18
86 18
38 3
23 87
87 15000
53 5
50 17
63 5
61 24
7 5
151 14
15 5
117 6
168 7
3 6
84 20
130 16
117 24
26 10
74 7
7 3
160 10
21 1
138 8
123 21
63 2
111 7
23 24
24 15000
37 14
26 13
41 5
3 14
16 16
41 8
23 17
38 23
47 12
1 10
2 11
43 19
8 21
6 13
15 14
48 15
44 19
42 20
40 2
47 10
40 15
13 10
23 33
33 15000
55 10
49 17
0 18
10 7
33 22
43 13
61 8
54 19
7 11
23 21
45 18
23 17
47 7
35 19
45 21
27 5
64 11
38 3
3 25
16 20
12 4
3 3
23 14
14 15000
24 23
24 16
18 13
10 14
12 24
26 16
21 13
25 7
5 23
24 2
15 18
8 22
9 1
13 10
7 24
17 15
20 14
13 17
2 14
15 12
25 1
27 25
23 32
32 15000
31 8
18 20
22 5
62 18
31 14
52 12
19 9
17 8
7 14
24 23
39 21
16 10
3 13
32 4
27 22
16 14
19 22
14 2
47 3
35 14
37 19
27 4
23 29
29 15000
22 11
41 16
11 10
8 15
0 22
51 25
45 24
43 16
42 8
54 13
46 25
49 21
50 6
15 16
38 19
34 9
29 7
28 24
14 11
52 4
48 8
51 25
23 60
60 15000
8 17
105 4
38 13
105 15
75 22
77 11
70 2
86 7
94 4
117 5
66 15
85 12
62 3
91 12
51 20
11 3
5 20
112 3
12 7
52 14
93 5
3 16
23 13
13 15000
21 22
0 24
10 11
13 1
26 14
18 12
14 19
13 5
16 25
23 11
26 23
11 15
2 10
10 20
17 11
25 4
25 10
13 23
8 5
11 6
8 5
23 5
23 58
58 15000
54 11
65 12
6 2
94 2
20 12
45 6
10 14
55 18
76 20
108 2
67 1
72 3
54 3
70 7
100 4
106 12
46 21
105 18
108 21
30 19
79 16
3 16
23 8
8 15000
5 11
16 13
3 24
15 15
11 15
7 25
4 23
1 16
15 11
2 25
1 1
9 6
9 19
8 12
4 7
4 12
8 15
1 9
0 9
8 9
13 16
6 15
23 73
73 15000
110 5
139 19
24 19
114 14
100 11
76 12
73 24
67 10
126 19
72 5
119 11
51 3
13 4
93 3
24 16
3 24
60 7
72 10
53 21
2 18
63 10
135 10
23 63
63 15000
112 19
104 8
50 6
101 10
16 3
90 6
106 25
119 24
19 19
64 23
121 8
86 9
56 19
33 18
98 3
95 14
1 3
60 20
40 21
66 11
39 3
74 7
23 62
62 15000
37 5
69 6
2 19
93 12
19 4
119 14
46 15
39 24
92 5
45 21
1 17
105 24
71 18
73 24
109 5
1 22
111 23
53 16
116 22
78 11
124 25
100 23
23 61
61 15000
91 21
80 19
70 4
43 9
85 21
31 3
65 6
19 1
8 10
75 7
103 4
6 12
53 11
113 8
4 11
105 3
113 5
10 3
80 20
104 20
97 20
99 8
23 29
29 15000
10 8
32 21
30 20
51 1
39 21
1 5
33 19
27 21
37 19
53 21
53 5
42 13
38 1
3 12
34 9
52 10
24 2
19 16
42 16
12 18
13 4
9 20
23 76
76 15000
29 15
59 11
90 8
50 24
32 16
121 14
96 6
144 4
4 23
130 25
114 15
65 20
118 15
34 13
87 2
50 7
131 22
5 13
143 24
69 20
84 5
128 9
23 29
29 15000
23 14
19 24
55 10
25 2
5 25
0 24
39 23
39 10
30 24
7 4
53 17
17 17
56 8
9 11
31 17
46 21
0 8
11 17
30 24
55 1
33 5
55 5
23 50
50 15000
80 17
19 17
52 16
74 11
14 1
69 10
5 2
3 2
5 24
41 8
44 25
75 20
56 4
71 1
14 1
99 25
28 15
27 12
96 25
74 9
74 13
75 10
23 3
3 15000
4 11
2 24
5 21
4 19
5 16
6 4
5 15
6 10
5 11
4 8
4 13
3 2
0 24
2 24
2 12
2 18
1 1
6 16
2 15
0 23
5 24
2 16
23 87
87 15000
111 25
132 22
52 15
123 17
81 2
127 7
80 1
0 19
113 21
166 16
65 10
40 5
143 13
160 19
165 1
155 2
76 13
123 7
28 24
22 12
127 25
42 8
23 21
21 15000
18 2
7 16
17 8
0 4
36 12
25 13
18 17
19 1
34 6
28 13
2 10
42 5
18 3
14 9
41 16
38 18
37 3
4 16
19 17
38 12
37 18
17 1
23 49
49 15000
41 3
73 10
87 22
97 16
51 22
44 20
39 8
2 20
41 11
52 22
19 6
94 11
69 24
65 18
40 17
97 3
96 15
78 24
25 4
53 3
56 15
70 6
23 60
60 15000
6 1
19 23
94 16
83 23
27 4
56 24
0 18
22 11
112 3
29 14
3 4
6 22
44 3
35 11
118 4
55 13
74 2
98 23
39 5
87 17
105 21
15 4
23 78
78 15000
60 16
35 17
14 2
71 2
44 5
83 7
16 8
3 8
108 20
6 19
95 12
31 11
60 3
77 5
80 1
19 8
138 8
130 14
70 7
62 16
46 14
51 16
23 19
19 15000
20 23
26 1
25 9
33 2
20 19
12 22
23 17
5 19
34 24
27 21
33 2
5 5
14 24
18 7
38 8
9 3
11 22
31 20
4 11
21 1
32 6
8 20
23 42
42 15000
34 15
41 13
5 7
30 4
64 16
61 15
47 6
16 18
76 14
73 9
12 19
76 3
75 18
15 24
27 2
82 10
80 9
26 18
77 10
66 9
56 20
53 11
23 25
25 15000
35 3
17 25
32 22
29 22
49 19
27 9
30 12
49 3
9 11
36 20
34 13
14 18
34 20
27 3
29 7
33 4
29 18
38 12
48 21
21 5
5 22
0 15
23 63
63 15000
77 17
13 2
39 13
20 25
112 5
1 20
63 13
67 6
34 20
13 11
106 3
95 20
125 5
116 11
120 25
6 9
5 13
91 5
98 22
7 2
34 14
38 2
23 52
52 15000
7 10
78 7
35 4
5 5
33 3
71 11
2 2
82 12
88 14
5 11
87 12
74 21
45 16
30 7
48 23
58 3
76 3
4 9
57 17
67 14
98 5
23 6
23 33
33 15000
36 19
37 16
2 19
47 15
60 11
15 25
8 13
57 6
28 18
57 1
10 22
29 21
18 21
59 17
59 24
51 22
32 9
24 22
65 4
23 11
39 17
15 23
23 11
11 15000
6 3
1 20
20 1
8 16
21 21
20 6
15 18
9 9
21 22
17 2
12 1
14 14
21 18
12 2
15 2
7 9
7 10
22 23
5 4
3 22
21 14
20 11
23 21
21 15000
2 22
41 1
20 2
18 1
5 3
27 2
41 16
39 9
42 17
17 8
17 12
42 25
32 18
38 13
26 10
36 24
21 20
37 8
30 13
28 5
14 22
2 25
23 83
83 15000
153 10
163 4
71 20
78 13
110 24
67 8
118 3
16 10
43 2
89 18
139 25
47 17
20 19
107 6
2 10
98 14
160 5
52 20
108 17
35 17
130 20
126 17
23 62
62 15000
103 1
119 7
116 14
84 16
0 1
49 22
35 5
21 20
98 10
40 3
51 10
52 20
117 19
60 14
119 4
111 23
28 8
28 21
95 13
12 23
90 12
68 1
23 75
75 15000
147 23
113 2
95 20
128 24
92 1
36 18
20 6
133 17
93 11
143 1
84 18
109 4
3 20
34 17
86 23
127 8
18 2
65 11
140 16
85 20
18 1
70 6
23 31
31 15000
5 23
30 12
33 3
29 12
30 7
43 20
49 9
20 2
62 19
7 21
22 11
36 21
13 11
18 22
62 21
41 25
58 7
45 14
9 17
60 11
11 18
19 4
23 1
1 15000
0 7
1 13
2 17
1 16
1 14
1 18
2 10
0 24
0 18
2 23
1 7
0 22
0 21
2 3
2 24
0 21
2 2
0 13
2 23
2 2
0 16
2 16
23 26
26 15000
46 17
30 7
12 16
30 18
31 8
45 23
41 5
28 4
48 21
36 13
23 22
38 3
37 9
43 19
42 8
19 18
23 14
40 10
14 12
44 9
13 7
38 25
23 18
18 15000
0 5
8 4
16 11
22 13
33 11
10 1
7 10
26 11
5 23
21 18
11 22
31 9
25 6
17 9
6 4
26 22
30 20
14 24
20 8
11 22
30 4
32 24
22 6
6 15000
1 9
11 25
10 13
11 20
9 6
0 20
0 5
7 15
12 4
2 24
3 25
8 15
12 2
7 18
8 8
0 2
11 3
0 16
0 1
7 3
5 7
22 16
16 15000
13 14
24 6
26 12
32 16
0 6
16 9
22 23
32 14
1 4
21 1
21 1
23 14
17 6
2 20
14 7
15 5
4 1
28 12
26 17
1 8
27 24
22 36
36 15000
8 23
43 6
42 15
65 23
23 6
50 1
18 11
62 19
36 7
46 3
41 14
47 17
33 8
9 12
7 21
20 25
23 16
13 15
58 13
5 18
37 18
22 20
20 15000
7 3
4 10
26 3
10 6
8 12
14 25
31 5
8 3
2 15
1 12
32 22
24 23
2 8
1 23
10 6
7 20
7 15
35 11
15 2
13 2
15 12
22 85
85 15000
142 16
100 12
97 13
57 14
98 19
39 21
14 20
93 22
54 16
151 17
129 5
66 10
161 23
165 2
136 14
28 23
162 3
39 8
137 6
60 14
31 8
22 1
1 15000
1 2
1 18
0 11
0 15
0 12
0 20
0 11
0 15
2 12
0 24
0 24
1 25
1 17
0 4
1 7
1 11
1 10
2 9
1 13
2 7
0 11
22 49
49 15000
13 21
90 3
11 11
80 21
95 24
59 1
21 23
7 17
43 6
55 1
68 18
84 23
74 20
27 21
55 8
27 10
64 21
82 1
60 15
31 10
87 6
22 73
73 15000
82 5
108 19
32 16
92 21
97 18
113 3
38 23
70 4
122 9
44 6
31 25
43 18
100 11
52 17
42 23
112 25
134 14
99 22
136 17
53 11
146 19
22 39
39 15000
51 16
35 23
38 1
43 17
58 1
8 9
50 23
71 1
78 23
32 19
54 17
50 22
18 4
66 8
59 7
68 10
63 14
47 10
22 10
3 8
49 15
22 9
9 15000
14 12
9 21
16 17
5 3
4 17
5 16
2 19
2 22
11 12
1 19
15 10
3 24
8 14
6 9
14 16
4 19
6 21
8 10
16 14
16 7
6 4
22 36
36 15000
72 22
19 20
12 15
67 1
69 1
43 2
42 19
28 13
20 19
44 12
11 12
18 9
30 15
37 9
65 25
12 19
65 11
29 3
38 2
36 5
12 12
22 49
49 15000
52 5
21 21
9 5
32 12
45 25
91 12
65 7
80 12
35 10
43 23
40 5
4 12
77 13
50 15
39 4
54 2
39 9
56 10
96 11
15 21
76 16
22 29
29 15000
57 22
44 3
18 2
26 2
52 4
16 22
7 1
49 3
47 21
5 23
14 10
10 17
20 7
8 22
47 7
17 9
46 22
37 8
12 9
11 10
7 22
22 85
85 15000
103 24
56 3
162 18
98 18
65 14
50 16
109 20
10 13
130 15
6 24
16 15
29 3
71 20
33 2
0 10
101 8
158 7
132 3
84 15
73 1
22 11
22 4
4 15000
5 8
5 8
0 13
0 24
3 18
6 11
3 5
2 12
8 8
4 22
2 5
8 21
1 24
6 6
7 4
8 24
7 21
6 10
0 10
0 17
7 21
22 40
40 15000
73 25
48 22
67 7
69 12
9 25
59 23
30 22
53 12
78 22
31 23
62 6
2 19
15 15
70 7
50 23
56 3
7 10
69 15
65 22
5 18
58 1
22 17
17 15000
15 22
2 14
27 5
24 21
12 5
7 8
1 18
32 3
8 10
26 13
20 21
18 3
0 10
30 8
9 6
15 7
9 8
22 2
21 22
23 25
32 2
22 8
8 15000
11 21
6 1
6 6
7 18
9 12
5 20
5 19
9 11
6 8
4 7
3 19
10 15
10 2
15 6
3 17
11 3
3 10
0 19
9 22
8 10
13 21
22 32
32 15000
31 14
30 22
63 15
4 23
40 5
37 17
15 5
16 17
20 25
47 15
27 17
39 6
30 16
18 20
55 14
49 12
28 7
37 18
35 19
16 23
32 19
22 29
29 15000
2 25
4 2
42 23
11 2
17 2
56 18
11 14
58 8
35 1
21 25
3 18
56 25
30 3
8 13
39 10
46 10
26 4
15 23
44 21
57 12
2 21
22 5
5 15000
0 9
7 21
5 20
7 23
7 24
6 25
2 13
8 2
6 2
6 24
9 10
7 11
0 7
8 1
2 7
10 18
1 24
3 16
6 21
9 20
3 23
22 39
39 15000
36 10
26 11
76 15
60 24
23 4
72 16
5 15
66 18
43 7
2 13
51 23
61 16
43 23
51 14
51 3
67 1
7 25
12 12
46 8
21 19
34 19
22 87
87 15000
154 10
10 22
106 20
146 19
19 19
96 10
39 21
163 4
113 16
164 17
79 17
104 16
4 14
25 25
0 21
34 6
4 23
101 11
166 23
105 13
93 5
22 36
36 15000
47 25
66 13
45 3
1 7
17 21
2 24
54 1
27 4
68 21
71 8
20 12
59 13
57 11
15 17
13 23
3 16
66 2
71 14
27 9
6 14
11 7
22 41
41 15000
12 9
21 15
43 10
14 21
73 16
42 25
62 22
10 14
81 19
29 19
70 6
48 8
80 9
58 3
72 13
26 1
29 6
65 9
59 20
42 6
65 17
22 40
40 15000
25 13
75 22
9 21
66 10
24 9
56 21
36 17
19 1
35 12
57 10
57 1
36 20
43 20
11 24
37 19
69 15
25 5
71 23
3 13
9 14
67 17
22 33
33 15000
51 10
45 23
30 23
2 3
54 16
26 3
8 24
47 8
4 23
20 21
52 17
38 5
18 23
8 6
50 5
34 19
24 3
33 9
58 6
5 9
7 17
22 71
71 15000
64 17
52 18
37 16
57 23
83 24
101 1
68 7
89 24
49 22
123 22
101 20
36 20
132 20
36 5
20 25
21 4
15 6
142 19
107 4
87 19
126 25
22 64
64 15000
64 6
46 19
8 9
73 7
33 4
20 17
21 14
94 4
32 2
15 13
103 25
65 17
63 14
71 18
58 9
96 10
97 3
39 24
94 14
103 9
4 25
22 48
48 15000
80 15
17 21
39 5
67 12
84 17
40 17
59 12
11 8
31 8
92 12
57 1
35 22
10 7
43 23
44 5
14 17
50 3
87 18
10 4
63 7
21 2
22 32
32 15000
54 15
13 17
51 7
19 6
21 17
27 5
62 4
57 8
8 12
48 21
50 13
53 25
13 12
29 2
20 6
55 17
31 24
53 13
61 25
29 13
63 18
22 88
88 15000
95 23
84 10
157 14
18 24
108 5
71 20
111 19
10 3
43 6
92 18
122 2
137 16
156 4
111 23
74 5
37 2
58 16
37 5
85 6
163 1
150 10
22 86
86 15000
162 5
8 16
119 25
21 1
39 22
71 17
97 9
119 5
104 8
2 8
25 14
152 14
34 3
4 22
119 2
47 2
166 11
32 15
19 13
7 13
139 20
22 31
31 15000
13 3
18 23
44 16
16 21
36 8
9 16
30 20
3 25
19 12
21 14
43 4
1 11
1 22
49 5
58 21
26 1
48 20
45 11
38 20
61 12
53 25
22 4
4 15000
2 19
7 6
3 1
6 18
2 3
4 7
4 23
7 22
5 6
6 7
7 2
1 18
3 25
6 25
7 1
8 8
6 18
1 25
8 13
4 15
8 19
22 32
32 15000
14 17
30 8
28 12
20 5
43 19
20 11
46 12
56 8
4 12
2 23
26 5
2 6
26 25
14 13
20 19
25 25
26 16
32 12
8 25
56 22
42 4
22 69
69 15000
68 15
48 8
23 10
43 4
20 24
2 24
89 17
60 12
121 18
56 7
18 15
75 18
115 15
12 17
115 16
68 8
19 1
54 11
42 12
18 3
36 6
22 52
52 15000
90 24
26 23
25 22
93 14
83 10
28 23
34 18
59 21
70 25
98 10
16 24
56 17
50 13
82 15
40 15
11 12
38 20
98 19
0 4
68 22
78 12
22 12
12 15000
19 6
3 15
7 3
14 18
10 16
20 3
2 10
11 17
9 1
9 23
15 4
5 11
21 12
18 18
1 5
12 21
11 18
11 20
22 3
13 8
17 9
22 36
36 15000
43 18
68 11
26 24
45 2
58 1
18 2
10 20
25 16
3 2
40 18
41 23
7 9
5 9
47 2
23 5
66 23
54 11
46 5
71 7
54 2
31 14
22 48
48 15000
13 11
8 22
91 25
82 3
25 23
93 21
81 16
69 23
48 24
92 16
74 23
91 4
47 8
87 14
4 1
3 22
11 16
69 21
0 21
20 3
58 7
22 77
77 15000
58 25
153 11
42 20
105 10
98 20
70 24
74 19
148 18
113 9
124 6
31 1
112 17
140 20
75 20
34 24
93 3
127 15
137 17
8 10
100 2
65 12
22 47
47 15000
15 5
64 5
39 20
54 20
60 17
29 9
38 14
5 3
2 25
62 7
48 12
28 16
79 5
5 23
55 4
3 21
17 8
61 23
64 16
73 20
28 13
22 63
63 15000
22 4
30 21
30 7
13 15
101 7
50 21
41 15
113 1
74 17
52 22
46 9
72 25
27 16
49 10
8 8
22 18
84 24
52 21
3 8
14 11
41 19
21 62
62 15000
117 10
44 18
33 13
68 7
13 3
6 13
91 22
30 3
21 16
70 14
2 20
28 23
124 11
8 12
124 3
18 17
86 15
111 23
27 5
28 16
21 30
30 15000
35 3
42 8
0 7
2 1
15 22
8 22
21 1
16 11
50 9
1 13
41 6
23 16
2 1
19 21
43 10
34 18
41 9
22 25
53 8
7 17
21 17
17 15000
3 15
20 6
16 18
31 20
26 6
22 12
11 16
7 9
29 25
14 22
32 7
10 16
32 10
2 18
0 24
18 16
30 6
21 2
10 15
3 7
21 67
67 15000
35 18
28 13
101 12
34 23
72 21
85 9
5 23
88 17
124 11
103 6
60 19
5 16
41 24
37 8
46 24
19 20
112 8
86 16
45 6
8 24
21 58
58 15000
64 7
105 20
36 24
113 14
35 7
62 25
53 17
116 2
96 1
25 8
45 18
87 14
92 18
27 7
80 9
43 5
74 17
76 19
18 25
23 21
21 77
77 15000
85 20
40 24
13 13
142 16
150 17
4 5
122 10
67 12
33 11
95 2
152 25
20 9
65 15
59 25
126 22
139 4
122 20
4 7
41 12
91 19
21 25
25 15000
18 23
29 3
4 11
19 13
23 2
24 8
44 15
20 11
17 9
16 13
3 15
26 13
49 12
5 7
11 15
25 3
21 11
22 14
47 5
48 6
21 14
14 15000
22 13
18 25
23 15
8 5
1 3
0 15
13 12
12 21
6 16
21 23
13 10
28 15
24 25
3 22
20 18
25 11
2 6
1 1
5 2
12 21
21 66
66 15000
124 10
115 19
131 11
5 11
121 25
35 5
50 4
113 13
20 17
2 8
27 4
44 1
61 16
29 16
52 20
112 3
13 12
41 24
117 24
24 17
21 73
73 15000
52 21
123 6
25 2
63 10
33 6
85 24
21 9
65 12
19 4
98 1
126 11
62 13
61 7
25 9
8 2
38 21
18 23
66 17
99 24
123 18
21 36
36 15000
39 16
38 15
37 14
29 11
29 1
2 12
50 1
56 15
8 4
17 15
64 7
58 11
5 6
8 5
42 5
13 14
4 13
40 3
62 3
15 2
21 81
81 15000
24 13
2 24
133 3
14 12
103 2
56 19
67 12
43 22
81 9
88 2
20 18
28 10
0 1
105 3
111 13
53 13
110 20
7 9
153 23
142 13
21 16
16 15000
26 9
9 6
14 14
8 19
7 8
2 15
0 23
28 10
0 18
27 24
11 11
11 21
20 9
6 22
22 8
27 1
14 15
12 3
9 13
21 25
21 30
30 15000
12 14
16 12
3 13
59 22
19 23
46 23
25 18
16 8
60 20
23 25
25 15
34 9
52 18
25 10
25 18
47 2
15 9
48 12
25 12
59 8
21 52
52 15000
100 5
53 1
97 19
49 23
0 16
36 22
65 2
52 25
64 4
89 12
19 18
15 18
95 8
70 19
50 23
57 23
59 12
97 9
79 15
62 12
21 64
64 15000
50 8
84 3
9 13
61 6
17 12
49 22
82 9
88 14
122 22
30 22
95 6
67 13
17 11
116 19
5 7
80 19
106 14
23 18
121 21
59 5
21 77
77 15000
30 3
60 1
65 6
39 3
96 23
101 17
66 16
80 12
3 17
86 17
143 1
86 9
89 1
66 21
134 19
118 17
35 21
14 2
81 19
38 15
21 27
27 15000
51 8
10 24
34 7
43 21
35 25
20 16
45 2
9 7
32 12
47 6
52 2
28 13
25 5
5 16
49 5
52 16
1 3
28 17
30 24
13 1
21 83
83 15000
73 18
12 8
97 11
85 21
108 3
130 22
83 5
5 12
115 7
133 25
45 13
146 20
120 4
127 1
20 8
38 1
148 2
11 9
153 6
50 8
21 22
22 15000
2 6
31 2
11 3
11 5
37 23
14 10
29 14
6 14
9 14
4 2
15 10
28 13
28 12
1 24
24 11
28 18
0 25
33 12
39 17
35 4
21 32
32 15000
51 14
28 25
11 14
38 16
17 23
47 9
40 15
41 14
47 2
43 3
36 3
7 12
30 6
17 15
32 21
2 9
25 3
19 13
22 6
4 15
21 10
10 15000
16 25
11 1
12 18
12 5
6 23
17 5
12 4
11 23
3 17
11 17
5 8
18 24
15 16
17 24
20 8
7 6
10 7
12 10
20 23
16 4
21 4
4 15000
6 11
7 8
3 13
2 4
6 19
6 18
0 24
7 13
0 12
3 24
1 15
1 23
8 14
7 21
2 5
7 8
6 6
6 2
2 19
2 3
21 55
55 15000
54 23
33 6
18 1
104 22
64 20
66 1
78 11
47 15
65 18
57 13
8 25
83 17
44 5
43 12
14 15
1 20
81 14
76 24
45 23
54 1
21 82
82 15000
112 3
61 18
86 8
101 21
60 16
41 25
79 23
122 1
44 4
13 1
133 8
59 19
48 13
53 6
77 11
68 16
128 17
27 15
49 11
26 25
21 52
52 15000
82 1
67 17
17 25
55 23
97 1
77 20
4 21
84 5
91 12
31 17
34 4
9 2
98 21
17 1
16 2
63 1
73 3
101 24
57 19
20 15
21 50
50 15000
12 12
64 21
74 17
8 3
49 19
31 9
24 17
3 23
82 25
9 22
92 7
85 6
41 24
62 19
35 24
73 21
48 2
79 3
96 20
19 24
21 17
17 15000
24 9
19 12
17 14
21 9
28 4
2 2
5 18
16 6
31 20
20 3
25 22
26 12
29 14
14 11
4 5
25 17
25 17
9 23
19 11
32 25
21 31
31 15000
6 2
35 15
54 1
23 24
4 20
12 2
31 22
34 22
49 3
49 8
51 10
27 21
13 22
12 1
50 4
46 1
31 14
42 9
14 9
54 20
21 41
41 15000
12 21
41 15
27 8
12 17
27 1
55 14
33 19
26 24
42 5
26 1
33 4
13 13
70 15
59 4
30 25
62 18
16 18
25 11
46 25
52 7
21 63
63 15000
8 20
23 21
95 1
46 3
102 20
102 8
42 14
112 17
67 6
56 19
48 10
94 8
4 3
85 18
27 17
119 7
82 21
58 10
78 24
114 3
21 46
46 15000
78 10
73 7
4 15
90 21
5 22
87 19
53 18
35 16
48 2
90 22
71 6
90 19
2 19
55 9
88 19
71 25
19 1
68 19
75 9
37 1
21 51
51 15000
55 19
44 18
97 11
89 8
86 19
26 13
72 24
10 22
3 8
66 13
69 7
56 13
100 12
12 22
18 7
96 4
8 23
24 6
75 20
66 17
21 70
70 15000
14 4
56 18
49 17
125 10
1 23
21 6
87 12
98 5
83 16
24 24
49 11
11 18
36 5
136 5
136 18
126 11
43 13
17 1
97 17
85 5
21 79
79 15000
114 10
57 22
2 12
120 22
126 12
64 7
2 11
128 17
46 19
126 4
72 22
60 2
93 1
58 19
33 11
1 25
158 18
43 1
152 11
81 25
21 66
66 15000
114 7
89 25
15 25
7 18
30 14
89 5
27 10
85 17
37 1
106 4
37 5
23 1
96 25
14 12
18 8
85 12
33 18
7 13
61 21
69 2
21 51
51 15000
75 6
29 24
50 18
90 12
41 19
49 2
34 25
87 20
70 14
32 15
95 4
90 15
22 17
44 14
27 7
77 14
84 1
81 2
101 4
80 15
21 72
72 15000
87 18
31 14
4 16
70 10
9 10
126 14
63 21
136 7
32 20
80 11
43 19
120 21
128 2
49 15
48 4
60 6
92 12
71 17
101 17
105 12
21 64
64 15000
37 2
76 6
1 24
38 4
120 20
15 25
97 20
9 1
116 24
94 15
51 2
73 25
19 6
112 16
124 17
41 17
119 11
77 2
43 7
81 14
21 4
4 15000
6 13
1 3
0 2
2 21
2 3
3 22
7 11
8 23
8 11
8 5
8 24
0 15
1 25
2 5
8 11
4 14
4 9
5 25
7 4
4 8
21 3
3 15000
3 4
3 17
2 24
0 11
1 10
6 5
1 4
2 10
5 6
6 16
6 6
5 1
3 15
1 4
4 20
0 17
5 14
3 25
4 12
2 22
21 6
6 15000
0 1
6 5
3 17
6 10
2 23
6 16
3 1
10 6
7 20
1 9
1 7
4 23
7 7
4 5
0 8
0 18
0 9
12 15
12 6
8 10
20 5
5 15000
10 3
9 4
6 24
8 14
8 2
6 23
8 21
2 18
3 20
9 16
1 5
2 9
10 17
5 9
7 22
7 20
9 9
1 18
4 17
20 37
37 15000
50 18
4 25
28 25
64 24
58 9
8 1
33 14
27 17
43 21
25 2
13 22
16 9
71 3
8 17
36 25
72 12
68 4
60 25
2 1
20 18
18 15000
20 11
1 14
12 23
6 12
26 13
23 20
15 11
29 11
3 15
2 1
26 20
34 12
15 3
8 15
9 2
4 18
7 21
26 10
19 23
20 6
6 15000
12 12
10 7
3 21
3 25
11 9
1 5
4 17
12 25
5 8
8 21
5 2
7 8
9 6
0 25
3 14
0 14
4 5
8 14
8 16
20 25
25 15000
5 2
28 12
18 2
0 14
42 1
24 5
30 16
16 22
19 23
33 7
6 25
27 15
3 10
11 16
23 4
31 18
12 18
13 21
11 24
20 10
10 15000
19 24
15 10
7 14
20 10
13 24
20 7
8 24
0 17
12 21
15 17
4 8
9 2
17 15
17 12
1 7
18 16
5 19
9 19
18 1
20 30
30 15000
21 24
48 14
23 2
16 17
19 23
9 19
4 7
40 11
5 8
53 10
58 3
55 10
57 1
55 5
16 10
35 19
19 13
52 12
43 11
20 10
10 15000
10 9
8 9
1 9
20 3
10 9
10 15
1 2
11 14
3 22
3 17
6 8
12 1
20 12
1 6
9 22
20 18
20 14
8 24
8 5
20 78
78 15000
150 15
115 19
6 5
134 7
152 13
67 8
138 13
42 22
148 23
80 16
153 6
91 19
153 17
36 12
52 3
143 19
147 19
118 12
66 6
20 48
48 15000
79 19
36 23
70 12
66 12
80 6
27 12
25 3
85 23
37 8
65 4
89 1
60 16
56 15
29 8
2 12
34 5
28 25
95 22
88 12
20 10
10 15000
19 19
10 18
14 9
12 23
3 16
15 4
19 21
13 5
15 15
4 23
17 24
6 10
0 1
6 2
15 4
18 21
18 19
6 22
20 24
20 39
39 15000
43 16
11 7
20 11
54 11
18 24
5 2
64 22
47 15
60 3
63 7
9 9
67 12
45 12
47 6
33 1
24 16
30 14
63 23
56 7
20 79
79 15000
112 7
42 4
29 4
63 1
79 8
132 13
119 17
85 10
141 17
7 4
135 15
70 23
71 19
108 6
101 7
72 22
67 21
135 25
7 6
20 15
15 15000
15 14
18 19
18 23
13 24
16 18
29 4
12 25
19 25
11 3
26 13
1 3
29 20
28 23
7 15
14 1
26 5
12 22
11 2
9 25
20 30
30 15000
57 19
38 23
59 12
31 18
59 9
46 8
35 19
58 1
50 7
34 2
28 23
46 10
19 15
43 16
49 8
37 5
49 2
43 22
59 10
20 79
79 15000
154 20
72 17
41 24
47 6
121 10
55 12
139 2
37 1
9 20
11 6
118 18
4 11
121 2
133 17
119 1
112 3
9 13
155 23
49 22
20 48
48 15000
66 8
38 10
17 8
7 3
47 10
27 5
42 7
19 1
3 6
57 21
16 16
67 2
28 17
72 10
40 19
52 25
76 20
26 3
57 1
20 10
10 15000
2 10
13 5
7 25
16 2
1 16
11 25
5 10
16 15
18 22
20 8
5 5
5 2
15 15
13 9
3 13
2 16
15 6
18 24
6 6
20 13
13 15000
26 22
18 10
23 8
7 3
3 11
18 14
5 21
13 14
15 24
25 15
14 13
16 9
9 12
12 13
24 12
23 5
12 13
9 19
1 6
20 31
31 15000
22 16
27 17
38 8
41 16
51 1
40 3
21 8
45 3
41 21
26 8
52 19
7 20
31 11
28 21
28 16
15 10
22 5
13 13
42 3
20 28
28 15000
19 6
45 5
9 3
22 3
11 10
36 8
28 8
54 22
36 19
5 6
47 1
16 12
0 4
49 21
25 17
1 19
30 22
34 23
5 14
20 57
57 15000
20 1
23 8
82 22
74 1
1 10
44 14
16 10
92 24
64 16
102 17
113 4
8 2
87 15
82 25
40 17
50 18
81 17
56 19
7 16
20 49
49 15000
33 3
46 9
33 17
72 14
62 13
78 3
64 7
60 2
8 12
56 10
57 21
69 21
36 3
69 9
62 15
14 14
98 9
57 5
81 20
20 9
9 15000
9 10
18 16
10 2
8 9
1 25
12 23
3 10
16 1
4 16
12 10
18 13
10 23
15 24
13 11
4 15
14 11
14 1
4 8
6 14
20 71
71 15000
59 15
45 16
0 17
47 20
136 17
89 3
2 4
108 24
106 14
29 19
83 11
33 1
53 25
9 18
81 17
20 23
30 16
108 1
69 16
20 22
22 15000
19 10
36 3
39 17
14 10
17 11
39 21
9 15
39 25
10 21
42 18
10 22
12 23
39 18
2 7
31 3
24 3
41 16
19 24
39 25
20 45
45 15000
43 10
46 9
43 6
45 11
15 25
86 2
17 13
27 25
49 24
24 2
69 16
6 5
44 24
2 3
15 10
43 23
68 3
61 7
42 11
20 59
59 15000
90 12
42 20
60 23
6 13
48 2
116 20
4 16
53 7
68 25
105 24
63 4
115 6
51 15
76 8
7 24
54 19
46 10
74 25
100 16
20 79
79 15000
119 19
111 19
10 7
84 5
91 20
99 2
102 2
29 11
19 3
101 10
142 22
74 21
88 20
2 10
102 25
149 2
30 14
151 16
80 17
20 62
62 15000
0 13
69 2
114 21
39 2
0 19
99 10
70 23
96 18
7 18
2 17
19 4
15 24
23 6
94 14
1 13
86 3
74 6
55 17
27 23
20 20
20 15000
23 16
33 15
18 17
25 6
38 3
29 17
36 14
6 22
39 13
7 2
28 6
17 21
14 18
39 1
1 25
34 25
16 16
16 6
21 24
20 3
3 15000
6 3
6 25
5 13
4 21
5 21
1 25
1 21
1 7
0 6
4 5
5 9
4 3
3 17
2 8
5 18
1 7
2 22
4 21
3 14
20 28
28 15000
30 9
46 8
21 3
6 6
43 1
43 14
9 1
28 7
18 9
53 11
55 17
43 15
37 4
27 6
4 12
39 20
16 7
53 20
54 22
20 30
30 15000
22 22
9 7
21 17
20 6
37 7
52 6
49 23
1 7
19 18
30 18
54 17
15 25
24 24
56 10
44 24
57 1
35 4
20 22
31 7
20 34
34 15000
52 15
1 21
48 7
0 11
52 5
36 9
3 8
36 10
43 23
27 7
39 13
23 9
33 23
6 8
48 1
41 12
52 23
32 20
8 21
20 62
62 15000
44 1
20 3
10 4
54 22
27 2
35 12
85 1
80 19
61 5
112 21
50 14
82 14
105 7
47 25
10 18
57 5
94 5
34 5
82 14
20 44
44 15000
76 17
88 24
33 16
33 21
68 10
10 1
19 23
9 1
3 15
13 4
37 18
69 7
27 16
73 19
34 6
28 12
65 12
14 24
63 15
20 1
1 15000
0 25
1 7
2 1
0 12
2 8
0 7
1 6
0 18
0 9
0 12
2 17
2 22
2 22
2 13
2 21
0 6
2 13
0 10
1 7
20 44
44 15000
26 17
27 25
28 17
29 20
24 2
45 22
34 24
43 9
9 2
87 3
29 12
85 10
35 24
52 20
73 7
79 5
13 4
70 25
51 24
20 76
76 15000
49 3
17 3
44 1
3 24
95 12
120 17
66 6
40 24
99 4
20 10
135 5
87 25
27 10
90 1
2 6
152 11
77 25
20 25
37 20
19 53
53 15000
16 8
8 10
98 22
41 21
54 20
31 24
72 23
72 14
64 14
100 3
103 1
93 5
33 24
57 9
97 14
93 18
70 1
9 20
19 64
64 15000
52 16
59 14
17 11
78 11
30 19
124 5
29 14
41 14
106 4
87 14
109 9
2 11
79 7
84 19
27 3
115 6
86 5
128 5
19 46
46 15000
20 17
0 20
69 10
0 18
6 24
83 13
39 20
36 7
42 22
28 20
91 19
22 8
20 12
83 15
35 9
20 11
30 11
17 4
19 67
67 15000
2 21
113 18
134 18
10 1
128 24
86 25
53 7
37 17
82 11
108 1
128 18
100 22
117 23
78 8
21 4
1 24
64 7
68 6
19 58
58 15000
13 6
110 10
90 3
70 24
49 1
29 18
94 13
10 23
11 5
74 23
103 4
78 8
2 5
80 16
76 14
68 10
35 20
16 14
19 72
72 15000
99 14
108 7
47 21
136 15
68 9
46 10
109 16
140 10
28 23
31 25
143 7
65 24
36 11
14 16
42 8
99 15
27 18
60 25
19 26
26 15000
51 17
48 18
37 7
9 23
28 9
0 21
31 20
37 8
46 3
23 7
24 24
27 7
34 6
43 6
40 6
15 12
28 18
26 6
19 44
44 15000
0 5
64 16
65 17
62 16
12 2
76 25
81 19
52 9
50 4
33 17
61 3
6 17
32 8
27 17
5 22
23 23
74 11
34 22
19 50
50 15000
62 15
74 13
34 24
44 22
17 8
39 25
66 25
62 6
37 2
20 2
26 24
67 14
98 17
22 1
81 12
80 18
53 4
79 4
19 43
43 15000
6 3
74 11
60 23
41 10
70 21
20 11
24 7
76 2
47 18
12 18
78 19
38 20
39 18
26 3
3 1
45 3
8 4
80 13
19 22
22 15000
23 24
35 24
11 24
3 10
34 6
36 23
13 4
9 19
34 1
12 24
17 22
25 25
21 24
33 5
3 18
17 17
30 21
41 18
19 3
3 15000
3 4
0 2
5 22
0 21
2 20
1 4
1 25
5 8
3 2
6 23
2 16
1 22
6 2
3 20
5 7
0 14
1 17
2 2
19 51
51 15000
81 24
23 12
62 24
24 1
100 8
28 3
100 22
66 10
77 4
50 10
57 6
0 24
5 20
52 14
96 13
21 1
102 23
68 12
19 72
72 15000
83 13
90 21
41 23
104 9
136 2
141 12
22 2
3 20
121 2
106 1
87 7
66 1
126 15
112 9
87 25
3 16
63 24
2 2
19 61
61 15000
38 10
81 4
34 16
32 7
24 10
13 24
43 16
54 12
7 11
89 18
108 6
91 25
11 13
117 10
34 14
15 3
44 14
82 6
19 12
12 15000
24 12
0 11
0 24
15 18
10 3
21 24
24 14
23 6
10 25
15 24
13 25
23 4
8 3
3 22
11 9
3 11
21 6
22 23
19 43
43 15000
56 15
68 16
68 15
60 2
76 22
28 14
41 12
83 14
31 5
67 16
5 21
36 21
23 14
53 7
71 17
86 25
2 4
25 21
19 52
52 15000
5 24
5 5
6 24
38 1
96 7
43 6
35 7
57 4
4 14
74 24
62 11
9 1
92 11
72 3
31 5
53 9
62 9
87 17
19 41
41 15000
46 17
3 15
49 18
14 13
5 23
81 25
22 21
18 15
26 9
38 19
27 17
81 25
31 5
72 1
42 21
29 25
79 19
40 20
19 64
64 15000
49 10
43 10
120 22
63 4
98 5
127 18
27 7
47 11
94 12
5 7
115 3
102 11
78 3
13 6
30 21
82 5
96 15
117 13
19 30
30 15000
41 16
47 11
45 11
20 10
35 18
60 12
49 20
47 24
12 15
48 25
26 19
27 10
12 1
49 25
52 1
24 23
58 8
22 21
19 11
11 15000
5 5
8 6
4 6
6 13
19 2
6 23
3 11
15 8
11 22
22 6
20 22
8 15
13 23
3 17
13 5
21 21
3 8
2 6
19 26
26 15000
18 18
7 8
44 23
28 16
1 6
16 8
43 4
39 24
49 12
20 2
5 2
32 2
44 6
32 24
28 23
38 16
21 14
11 21
19 3
3 15000
6 13
5 5
1 5
3 15
2 5
2 14
0 20
0 13
1 15
4 10
2 4
1 3
1 10
2 7
0 17
5 7
1 16
1 15
19 47
47 15000
8 6
21 25
48 13
32 20
27 1
14 14
70 11
89 10
14 24
66 15
52 10
53 9
63 7
69 19
3 4
34 14
78 11
72 9
19 17
17 15000
0 5
2 3
0 11
19 17
1 19
20 6
17 12
32 7
30 9
24 19
17 3
2 3
18 3
12 5
32 23
13 20
31 3
21 10
19 39
39 15000
12 1
76 2
57 4
71 8
47 5
53 14
42 13
3 21
44 15
8 5
20 21
57 1
46 18
40 4
40 13
3 21
36 19
4 11
19 44
44 15000
34 20
55 4
76 14
6 3
69 17
73 17
56 11
56 3
88 22
17 1
44 9
40 17
50 13
68 22
87 20
21 10
88 21
87 4
19 46
46 15000
25 9
76 3
27 4
69 25
36 13
16 23
5 10
8 24
31 20
52 12
53 25
60 22
77 10
15 16
36 16
43 12
52 14
43 13
19 58
58 15000
61 12
23 12
99 19
89 5
96 2
18 16
6 19
103 5
94 13
74 5
78 15
3 17
60 18
2 7
115 4
2 8
25 21
112 12
19 29
29 15000
21 18
1 24
27 2
46 18
15 8
26 10
52 19
8 19
15 2
9 20
14 18
53 21
11 10
0 15
37 25
55 25
34 19
29 16
19 65
65 15000
119 11
21 9
19 2
95 21
65 10
126 14
123 17
90 15
52 4
93 5
44 3
22 15
58 9
37 5
72 24
74 10
68 19
84 11
19 20
20 15000
20 6
14 21
10 23
8 19
4 10
3 10
9 19
4 22
9 16
17 12
40 13
9 25
40 7
21 10
28 22
14 12
36 16
6 6
19 23
23 15000
39 2
0 10
19 7
41 9
38 5
46 25
27 25
39 25
9 25
16 2
43 22
14 6
44 16
37 20
15 15
16 24
45 7
24 8
19 29
29 15000
13 18
48 21
2 21
42 5
4 9
40 20
2 2
53 22
28 11
3 21
6 21
53 12
50 20
33 15
35 11
15 23
46 2
34 9
19 63
63 15000
120 16
2 13
98 15
10 21
9 8
32 7
103 24
86 6
126 16
60 14
6 4
52 5
20 17
94 11
83 18
16 15
39 5
71 2
19 18
18 15000
25 23
20 24
18 23
25 24
0 17
9 16
0 8
26 11
8 16
32 20
8 8
30 17
10 24
5 25
32 3
29 18
21 11
20 25
19 33
33 15000
13 1
55 20
61 5
24 3
36 12
62 6
35 3
4 18
65 24
31 10
43 11
43 4
29 7
10 20
5 5
4 2
42 20
65 25
18 30
30 15000
40 4
32 11
60 23
38 13
15 13
29 2
47 11
20 12
46 7
39 6
42 15
43 16
47 6
17 15
46 22
33 25
60 7
18 38
38 15000
33 6
8 23
68 21
54 13
1 10
48 9
69 24
60 14
23 20
4 2
58 2
7 7
47 20
48 5
36 6
41 6
73 22
18 8
8 15000
4 19
5 10
12 14
0 24
10 2
13 13
4 25
2 16
12 10
13 22
12 13
5 20
5 25
7 14
14 9
14 7
3 23
18 28
28 15000
27 11
2 17
51 22
39 22
20 21
18 4
43 14
27 9
44 9
42 22
19 3
53 7
48 17
48 21
5 24
50 12
36 11
18 31
31 15000
24 8
11 18
41 24
45 23
25 10
60 21
49 5
58 11
26 3
36 5
48 8
43 14
57 7
35 16
19 15
50 14
43 23
18 39
39 15000
14 24
40 18
7 15
30 9
77 15
36 14
70 11
10 19
35 17
38 15
76 11
43 11
65 8
19 20
8 7
45 25
51 8
18 41
41 15000
0 24
22 1
74 19
53 19
20 21
25 3
34 20
75 13
46 17
68 3
77 17
55 19
77 16
49 24
65 6
40 17
35 19
18 56
56 15000
29 15
0 4
22 24
84 2
2 3
7 9
15 24
11 21
77 12
72 18
56 25
22 11
12 21
46 15
27 21
67 13
64 13
18 53
53 15000
7 11
64 9
64 4
82 15
79 16
43 20
11 22
11 8
33 2
28 19
8 21
74 16
68 15
9 11
30 12
94 9
11 5
18 16
16 15000
21 8
12 20
25 2
13 2
15 2
16 1
23 8
31 3
17 18
8 2
4 14
31 5
16 15
22 23
24 14
28 18
24 2
18 61
61 15000
86 6
36 7
120 21
10 24
32 22
29 12
10 16
119 10
5 25
93 14
58 4
96 13
56 11
77 10
48 9
50 14
5 17
18 70
70 15000
113 15
131 10
16 10
3 10
108 24
82 3
95 22
98 21
15 21
5 24
8 5
78 21
11 11
127 3
114 12
8 12
98 12
18 58
58 15000
13 21
50 11
104 5
47 17
95 2
36 10
44 3
1 13
78 9
10 12
99 3
53 2
3 19
11 17
114 13
79 22
32 20
18 23
23 15000
14 2
4 13
32 17
26 2
16 23
14 18
34 17
31 25
45 13
12 17
31 2
43 9
45 6
34 20
45 19
27 9
34 16
18 54
54 15000
70 9
51 15
99 17
37 8
65 16
25 4
41 4
82 22
56 11
42 6
24 21
102 4
3 23
34 19
81 24
81 9
101 11
18 14
14 15000
12 4
5 6
17 16
12 13
10 4
8 19
18 10
3 7
6 5
21 25
13 10
16 11
7 6
4 15
0 16
19 13
28 17
18 34
34 15000
46 8
4 15
13 23
19 24
65 24
5 8
56 14
54 20
2 5
67 16
62 10
0 1
53 11
6 13
53 10
36 8
57 3
18 70
70 15000
81 3
81 24
111 11
35 10
10 23
113 1
57 9
95 20
69 13
59 21
108 25
95 3
59 24
53 14
82 18
61 15
65 23
18 62
62 15000
99 8
19 11
37 20
41 13
71 25
66 17
95 6
7 18
45 8
56 1
113 7
15 5
124 8
114 15
106 12
103 8
95 1
18 18
18 15000
21 20
36 23
7 11
0 11
19 23
34 3
32 3
27 21
3 17
29 22
25 20
2 7
0 1
30 8
12 13
0 6
5 14
18 67
67 15000
45 1
47 14
15 15
133 13
119 11
92 5
34 16
16 2
52 14
23 15
60 17
13 1
106 18
67 17
20 18
100 3
114 15
18 70
70 15000
105 5
88 19
23 13
129 23
74 8
124 19
37 4
108 7
130 25
137 20
66 2
49 7
86 18
126 6
45 17
40 19
127 24
18 13
13 15000
16 12
23 11
18 12
9 1
17 5
1 8
18 11
12 20
13 20
19 7
3 12
21 6
13 3
18 18
10 4
17 17
10 11
18 53
53 15000
4 22
24 22
90 11
91 8
89 18
27 7
11 23
19 1
86 14
30 3
39 16
101 6
35 11
81 9
93 22
1 24
53 18
18 63
63 15000
0 5
33 3
113 22
30 23
102 3
53 18
49 13
36 2
69 21
34 6
108 20
55 25
118 15
57 20
104 8
9 2
9 19
18 60
60 15000
117 17
5 24
118 13
48 25
5 13
84 16
77 3
82 20
105 19
64 18
32 2
82 11
109 14
1 12
40 23
74 4
46 25
18 67
67 15000
57 12
116 24
35 17
90 17
133 8
95 1
5 11
82 20
24 15
20 12
24 17
103 13
61 14
23 20
32 3
62 2
5 2
18 2
2 15000
1 18
0 10
0 15
1 21
1 12
0 11
2 2
2 24
2 4
4 15
4 3
2 16
1 22
3 8
3 17
4 5
3 15
18 41
41 15000
21 4
11 4
15 3
29 7
12 17
31 16
67 25
18 8
35 9
57 12
39 25
40 24
48 18
35 20
30 25
3 9
14 4
18 42
42 15000
44 6
11 9
72 18
29 13
60 4
56 20
24 2
37 14
37 22
21 16
0 12
55 5
78 1
6 22
60 20
74 7
64 11
18 35
35 15000
34 3
16 11
53 25
5 9
55 5
9 16
34 4
48 15
65 19
16 21
25 17
34 8
51 8
48 6
9 5
36 8
56 18
18 50
50 15000
84 17
16 9
57 4
19 8
8 22
57 16
95 12
77 11
80 24
40 4
91 7
88 5
96 2
86 25
53 20
45 10
25 19
18 23
23 15000
34 24
29 14
34 12
42 16
45 18
9 12
31 21
26 16
1 18
38 24
6 16
29 12
19 23
40 12
27 1
45 15
35 22
18 50
50 15000
47 10
22 14
77 1
41 24
73 8
15 6
49 5
51 3
60 10
74 5
79 4
8 25
46 15
43 5
90 4
99 13
91 19
18 6
6 15000
8 21
8 24
9 25
0 17
5 16
7 4
9 23
7 13
9 15
4 10
6 15
0 7
3 22
11 19
4 8
11 11
12 13
18 1
1 15000
1 12
0 6
2 14
0 21
0 18
0 11
0 21
2 14
0 3
2 6
0 1
0 3
2 4
0 24
1 15
0 22
2 8
17 37
37 15000
67 24
72 13
46 15
45 10
43 16
72 7
37 2
62 20
35 15
13 13
51 19
37 2
52 4
10 25
31 21
53 2
17 51
51 15000
11 16
82 17
101 3
51 2
87 18
5 2
102 11
9 21
54 1
65 20
65 1
52 18
70 24
50 8
9 3
92 4
17 26
26 15000
20 20
26 24
24 8
47 25
34 2
14 11
29 3
13 15
4 9
16 1
12 23
4 8
17 23
30 1
33 14
44 24
17 39
39 15000
54 24
38 8
17 18
48 25
39 19
11 2
16 5
2 17
61 7
43 8
3 6
43 19
54 9
67 4
60 21
27 4
17 2
2 15000
0 14
2 23
0 20
1 16
4 25
2 17
3 14
0 10
4 10
0 22
2 1
2 1
1 18
0 19
4 9
4 15
17 66
66 15000
20 15
17 4
21 10
28 11
10 6
99 25
98 25
45 18
70 12
8 7
77 12
64 21
57 24
80 3
49 19
21 22
17 37
37 15000
71 25
70 9
64 8
43 20
72 18
52 24
32 21
4 22
56 11
71 21
65 17
63 16
45 18
29 17
45 4
0 19
17 58
58 15000
46 2
109 5
5 14
63 15
66 25
29 15
101 21
75 17
51 19
13 11
103 1
77 2
36 24
55 10
65 15
88 24
17 38
38 15000
61 4
44 25
10 5
67 7
23 7
7 24
58 3
71 23
50 3
12 13
63 8
67 11
35 6
11 20
63 10
4 7
17 60
60 15000
35 8
111 10
77 3
59 9
89 14
62 19
54 13
65 10
71 21
67 3
69 6
103 24
64 4
28 4
29 6
83 23
17 18
18 15000
23 9
12 14
11 23
5 12
21 23
15 1
8 1
29 2
9 25
14 4
34 21
1 13
16 25
6 25
36 7
8 6
17 60
60 15000
50 20
32 2
64 25
8 23
54 16
104 20
105 6
14 11
26 20
2 22
67 9
5 16
63 15
86 22
23 16
33 6
17 38
38 15000
65 8
2 3
72 11
2 15
6 14
68 19
2 14
6 2
53 17
10 18
8 11
66 22
37 8
53 12
4 8
13 25
17 56
56 15000
12 3
4 21
19 3
29 15
32 3
62 21
13 21
69 17
39 24
22 1
110 22
106 17
2 9
71 6
51 15
95 19
17 51
51 15000
25 14
101 12
29 8
42 3
53 14
68 25
2 18
36 18
52 17
95 15
97 21
42 23
31 18
11 1
25 24
52 23
17 25
25 15000
35 11
8 20
15 16
30 18
24 25
32 12
14 7
45 9
22 20
24 4
50 21
25 24
39 16
14 1
29 11
45 25
17 47
47 15000
24 22
65 17
14 18
20 21
61 24
85 14
93 19
93 24
0 4
6 13
27 8
7 10
35 13
25 7
6 22
57 3
17 64
64 15000
111 20
1 22
39 9
18 5
4 19
6 16
27 8
80 22
127 21
10 24
85 1
47 23
25 25
110 19
85 4
41 8
17 23
23 15000
40 7
36 11
5 12
11 7
39 24
2 6
27 23
9 2
15 22
40 13
46 10
6 19
13 4
41 15
32 5
1 18
17 2
2 15000
2 5
3 11
2 7
3 11
2 16
1 5
3 18
1 10
4 5
2 14
0 21
4 21
2 17
1 24
1 7
0 5
17 1
1 15000
2 17
2 17
2 8
2 15
0 3
0 19
2 14
0 25
1 13
1 12
2 13
1 3
2 4
1 8
0 16
0 1
17 13
13 15000
1 19
5 25
18 23
1 21
5 19
19 16
8 20
1 3
5 21
9 25
5 21
2 7
0 10
2 24
21 23
8 21
17 46
46 15000
28 21
16 15
41 9
62 14
3 9
70 22
13 10
13 15
80 9
54 22
42 23
60 22
51 5
88 19
31 21
62 3
17 32
32 15000
18 17
39 8
24 5
18 19
26 5
62 21
24 2
47 23
64 21
38 20
15 7
55 5
6 9
57 5
60 21
13 20
17 10
10 15000
16 4
18 22
14 17
11 19
3 4
4 7
15 5
12 24
14 22
10 22
2 5
8 22
12 9
13 20
7 14
3 25
17 6
6 15000
0 21
4 22
1 23
12 10
10 10
2 12
5 12
6 9
9 24
10 19
1 19
7 14
6 12
1 3
1 24
12 25
17 36
36 15000
48 23
69 23
18 13
12 11
67 14
59 15
37 11
50 15
37 24
17 1
0 10
47 2
51 18
30 8
21 21
37 14
17 3
3 15000
4 13
1 22
0 7
1 7
5 17
3 17
4 14
4 20
1 3
0 19
2 15
2 13
2 13
4 7
4 16
3 2
17 35
35 15000
11 1
31 2
62 1
19 20
33 3
19 15
1 12
27 8
35 18
27 12
66 14
41 9
6 6
38 6
27 5
56 2
17 56
56 15000
111 5
28 9
11 3
111 19
64 25
93 7
109 6
106 18
15 18
42 23
84 23
70 22
15 21
99 7
97 6
9 14
17 22
22 15000
20 22
11 5
41 20
14 7
12 9
21 25
34 24
41 7
36 4
3 11
37 22
22 15
39 20
16 7
24 10
23 12
17 17
17 15000
26 16
31 19
10 25
12 24
30 13
22 6
13 21
24 24
0 5
22 18
2 8
8 14
8 25
29 16
5 11
30 17
17 10
10 15000
12 12
16 19
6 16
16 12
17 7
15 3
16 7
20 7
6 15
0 8
14 12
17 10
7 4
4 23
20 23
15 20
17 60
60 15000
69 15
35 9
5 22
84 22
30 17
111 11
106 5
19 6
23 19
81 17
49 25
27 8
90 2
74 5
14 7
85 18
16 36
36 15000
68 1
51 22
22 10
67 7
12 13
24 14
50 3
32 17
27 15
39 19
70 5
23 22
67 6
52 2
44 18
16 57
57 15000
48 20
72 22
40 22
84 19
57 12
110 24
69 21
73 1
57 8
42 9
82 4
48 2
56 14
6 24
96 21
16 62
62 15000
9 17
10 8
103 9
81 25
118 19
91 17
54 12
86 6
101 20
54 10
98 11
117 2
31 9
29 7
71 2
16 24
24 15000
24 20
42 15
38 2
36 23
47 17
4 13
15 3
7 3
40 21
35 15
22 18
38 25
45 17
35 8
35 8
16 63
63 15000
100 2
21 10
45 12
12 24
2 24
85 23
107 17
86 22
43 19
99 9
58 23
55 16
8 11
54 7
23 1
16 34
34 15000
42 5
8 4
57 19
36 3
35 9
0 24
20 10
23 25
23 18
68 14
53 4
43 24
64 17
2 10
61 22
16 17
17 15000
28 1
4 12
24 10
21 9
25 7
31 12
29 11
13 10
10 1
30 6
11 20
11 10
27 6
33 9
31 1
16 5
5 15000
6 1
3 20
8 18
6 17
1 24
5 17
8 3
2 17
3 4
0 25
5 2
10 2
0 19
6 9
3 7
16 43
43 15000
35 10
3 17
36 5
56 10
61 7
73 3
61 7
73 8
39 12
82 3
84 20
19 2
38 11
73 3
79 17
16 28
28 15000
22 1
47 19
28 22
28 3
43 10
38 11
54 12
40 9
33 4
16 17
50 23
3 8
18 17
23 22
52 10
16 8
8 15000
4 10
3 13
12 18
7 7
12 2
7 12
7 22
7 12
10 8
13 2
1 13
3 24
3 3
5 4
9 2
16 35
35 15000
20 14
20 5
0 20
54 23
61 23
13 8
68 8
17 14
14 21
34 24
40 17
52 10
45 13
19 5
33 4
16 37
37 15000
26 17
41 7
58 13
4 8
8 3
43 18
54 4
28 18
48 1
46 24
36 16
58 21
66 22
49 21
57 3
16 37
37 15000
8 21
51 17
55 15
21 16
74 1
8 17
29 12
21 22
61 22
19 13
33 10
45 6
2 19
4 1
25 9
16 19
19 15000
7 4
28 1
19 3
24 2
9 24
13 20
10 24
14 1
10 13
30 22
26 7
14 3
17 13
38 10
14 16
16 25
25 15000
43 22
2 2
50 13
2 9
27 1
6 11
40 18
5 6
0 13
27 3
40 10
7 13
40 12
14 7
41 14
16 56
56 15000
27 10
98 4
99 24
100 2
57 7
85 25
104 16
94 17
41 15
112 2
77 4
15 15
28 13
13 5
112 2
16 10
10 15000
2 11
2 22
4 19
1 8
7 8
16 11
14 24
18 13
15 3
16 23
3 12
2 20
8 12
2 16
18 9
16 37
37 15000
44 19
69 16
49 15
19 8
48 4
39 9
74 13
72 14
9 25
21 9
54 8
7 25
41 20
8 9
21 17
16 60
60 15000
103 12
81 11
56 18
10 21
10 10
46 2
103 25
115 24
74 25
119 19
12 2
53 4
49 23
88 3
33 5
16 23
23 15000
34 16
42 23
41 8
43 1
0 14
36 3
37 12
23 23
40 3
3 17
13 21
27 12
24 17
7 20
12 6
16 7
7 15000
14 23
11 24
11 6
14 4
12 20
0 10
14 2
7 17
14 17
5 19
7 8
0 11
1 5
6 18
10 17
16 31
31 15000
40 14
0 18
58 4
4 21
38 18
17 22
43 15
55 6
9 2
30 9
55 25
31 11
21 1
2 16
29 13
16 15
15 15000
9 4
5 2
8 19
30 17
26 17
30 3
2 21
22 8
29 17
26 22
22 1
22 3
24 22
25 16
30 14
16 61
61 15000
110 19
111 1
5 16
83 7
65 18
76 25
90 8
79 5
98 6
19 18
40 7
2 24
73 10
46 22
26 15
16 23
23 15000
15 8
31 3
38 17
38 7
35 24
5 14
26 1
4 25
19 8
15 15
5 15
15 5
34 13
33 18
45 20
16 30
30 15000
41 4
39 21
47 12
28 11
17 1
49 14
42 5
1 23
7 25
37 18
12 19
58 11
25 11
44 7
38 14
16 32
32 15000
7 19
8 13
17 10
5 8
39 16
62 23
33 17
19 11
49 16
54 13
7 9
34 8
2 20
37 4
16 16
16 50
50 15000
46 10
45 4
35 16
48 16
43 11
55 25
88 22
76 11
45 7
97 5
81 11
8 15
33 11
0 15
95 8
16 18
18 15000
0 17
28 24
6 18
21 15
33 6
24 20
8 15
27 17
30 21
2 12
0 6
18 15
6 14
31 4
22 14
16 30
30 15000
44 7
29 17
27 22
7 20
18 16
33 12
38 5
26 15
44 19
29 25
3 14
60 10
45 18
3 9
24 6
16 38
38 15000
62 12
20 24
12 11
21 13
0 1
48 16
43 7
10 13
41 11
29 19
74 14
56 15
59 17
44 4
62 13
15 20
20 15000
37 2
5 13
21 19
17 10
1 25
27 13
20 20
2 15
38 15
13 9
4 25
3 11
29 23
10 24
15 5
5 15000
8 15
7 9
3 9
7 15
5 14
0 10
6 1
7 23
9 23
5 19
3 22
6 13
2 24
2 2
15 28
28 15000
55 7
42 24
10 10
27 10
35 10
33 3
19 2
18 24
52 4
31 10
31 22
28 17
56 10
51 9
15 34
34 15000
9 4
1 3
42 1
17 13
17 14
19 7
0 6
48 9
21 2
23 18
29 5
60 3
46 4
2 11
15 19
19 15000
38 5
19 2
22 2
9 8
4 20
15 21
20 11
38 4
17 12
20 18
35 11
32 13
38 3
3 3
15 22
22 15000
36 3
36 8
36 18
13 3
25 23
4 20
11 7
7 14
44 21
39 24
18 22
21 2
6 20
5 1
15 5
5 15000
9 17
10 10
7 18
8 3
10 15
2 8
1 23
4 6
8 25
0 12
6 17
10 2
7 5
0 20
15 46
46 15000
54 6
76 17
26 22
14 11
74 4
23 24
39 4
73 6
51 5
64 14
23 10
42 15
69 19
61 18
15 49
49 15000
83 23
34 16
32 9
27 8
7 22
29 14
97 18
38 22
52 2
75 23
46 25
50 9
33 11
94 12
15 30
30 15000
16 7
59 12
56 3
51 8
59 8
58 9
44 8
13 20
40 24
0 7
57 10
38 11
46 16
45 19
15 3
3 15000
4 19
0 24
2 16
0 7
5 7
5 23
4 3
0 10
5 18
5 4
5 23
5 17
1 25
0 22
15 58
58 15000
28 10
98 13
32 17
2 4
112 3
42 23
17 16
22 2
76 10
76 8
50 11
104 24
6 7
98 1
15 16
16 15000
19 5
15 13
11 15
32 17
27 6
26 12
8 5
8 15
24 13
17 15
2 12
26 8
21 16
7 7
15 55
55 15000
45 15
8 17
87 10
35 6
74 8
33 20
100 5
25 19
99 8
8 4
76 14
72 1
67 8
84 21
15 12
12 15000
9 18
3 1
14 22
16 2
12 24
14 20
14 9
9 19
3 5
9 12
3 13
0 18
12 3
22 20
15 41
41 15000
80 14
52 13
36 17
35 15
29 7
10 8
45 23
35 7
7 18
33 14
52 24
32 16
75 11
79 5
15 16
16 15000
22 10
21 17
27 20
4 19
20 1
17 7
24 13
26 3
23 13
29 4
24 2
4 25
5 25
30 6
15 5
5 15000
7 18
10 16
1 24
10 19
3 14
6 10
1 24
1 6
2 17
9 20
1 20
8 8
7 21
1 2
15 29
29 15000
28 8
9 2
44 23
17 13
57 19
36 6
14 6
36 10
32 4
18 13
12 10
32 15
52 2
1 3
15 46
46 15000
24 3
25 3
22 18
18 7
74 6
56 11
24 4
33 7
55 8
13 8
12 18
40 10
68 19
8 15
15 58
58 15000
105 23
52 23
17 11
25 7
30 13
44 10
102 12
57 19
26 20
56 17
64 5
91 15
108 25
39 2
15 43
43 15000
86 15
22 16
54 15
54 10
70 13
14 13
78 24
57 24
53 18
11 6
47 24
75 22
10 19
2 16
15 3
3 15000
0 11
4 25
4 9
0 16
5 8
2 4
6 3
0 22
3 17
1 24
6 13
3 25
2 11
2 11
15 3
3 15000
0 11
3 19
5 25
6 12
1 13
3 7
2 9
6 7
6 1
5 21
2 10
1 21
3 23
0 12
15 44
44 15000
74 4
75 10
79 15
64 5
62 2
61 23
0 11
8 15
74 8
85 16
13 14
64 4
26 20
71 7
15 7
7 15000
11 20
6 22
10 18
12 5
0 7
10 7
0 13
12 21
4 2
14 22
4 2
12 8
4 24
11 19
15 33
33 15000
25 3
63 22
34 20
36 3
10 19
44 5
28 16
38 24
22 12
9 7
7 11
52 25
66 11
40 2
15 44
44 15000
28 6
37 24
74 3
22 23
40 13
65 10
75 23
32 15
64 19
75 3
22 3
9 20
74 3
6 15
15 18
18 15000
11 21
2 9
8 22
25 3
20 11
27 22
29 6
8 5
28 12
24 21
18 24
36 10
22 24
15 3
15 34
34 15000
26 6
44 1
50 11
36 3
26 6
43 9
13 9
8 7
12 19
44 20
67 4
50 14
14 12
31 6
14 48
48 15000
44 4
81 24
21 7
84 17
58 7
74 17
17 24
71 5
16 1
81 10
75 6
1 12
3 14
14 29
29 15000
32 3
53 21
4 5
44 20
52 9
31 3
7 7
48 14
2 18
2 6
16 9
9 16
16 2
14 51
51 15000
56 9
96 24
27 8
88 1
68 5
100 24
36 12
4 19
19 3
22 22
48 8
10 14
94 12
14 7
7 15000
1 6
4 24
10 20
5 11
0 13
2 1
1 19
13 18
9 16
3 6
8 19
14 20
14 2
14 24
24 15000
7 18
41 23
45 19
7 1
35 3
34 16
31 20
22 6
12 23
31 5
11 1
1 13
46 14
14 12
12 15000
19 15
10 18
1 3
5 1
4 24
8 5
3 12
9 21
17 4
0 23
15 23
8 21
4 11
14 7
7 15000
8 10
5 3
8 20
9 23
7 17
14 24
0 3
11 25
5 20
0 4
2 14
3 12
5 1
14 27
27 15000
7 8
37 20
15 19
49 5
38 21
28 22
53 12
7 19
16 6
39 8
17 22
34 16
25 10
14 17
17 15000
8 18
21 21
14 4
19 17
15 23
17 11
20 14
33 19
8 16
11 2
3 2
27 9
30 24
14 51
51 15000
59 11
39 2
2 7
62 7
44 1
82 19
35 8
10 19
24 2
72 24
59 14
61 13
58 23
14 19
19 15000
3 15
5 4
32 3
2 23
16 24
13 20
37 23
12 22
6 14
34 24
10 13
31 17
27 13
14 20
20 15000
25 2
16 5
40 1
25 4
37 24
31 23
6 24
25 9
36 16
12 1
33 2
32 23
16 25
14 44
44 15000
61 23
19 25
5 10
48 17
58 14
26 17
3 13
7 11
63 16
54 11
13 22
35 17
49 2
14 42
42 15000
58 24
22 13
55 2
67 13
43 7
49 7
4 15
28 13
72 9
37 13
29 20
13 20
17 15
14 44
44 15000
71 10
1 10
23 22
45 17
71 17
25 19
55 22
59 14
65 10
73 4
13 18
30 4
54 2
14 22
22 15000
33 16
20 18
36 21
35 6
27 12
0 17
0 13
34 14
6 2
35 10
33 21
43 24
31 13
14 20
20 15000
1 15
1 12
21 25
12 9
33 19
10 4
9 13
11 10
3 15
24 24
40 17
38 23
20 6
14 54
54 15000
92 17
31 17
99 20
12 20
59 3
23 19
63 12
30 4
25 8
36 14
23 21
87 17
72 21
14 55
55 15000
84 8
7 21
22 4
64 11
11 22
61 6
33 15
94 25
52 9
64 20
75 2
31 3
75 21
14 49
49 15000
57 1
10 14
86 13
49 1
14 3
42 18
29 22
37 19
12 23
18 4
83 2
17 9
97 24
14 18
18 15000
30 19
15 2
23 7
20 22
17 21
9 14
1 24
18 22
10 14
6 6
3 2
1 21
3 25
14 35
35 15000
6 18
4 10
52 14
64 15
56 22
20 16
43 17
55 25
17 10
41 19
67 3
34 3
16 2
14 28
28 15000
49 17
9 10
4 22
13 3
56 19
49 25
56 16
16 6
56 14
22 1
33 5
29 7
40 19
14 10
10 15000
17 15
9 10
18 24
9 20
9 12
10 21
10 18
8 21
19 7
17 16
9 8
8 12
4 14
14 35
35 15000
58 18
37 7
27 12
64 8
44 12
55 13
23 10
39 25
51 7
29 3
44 24
23 8
4 4
14 5
5 15000
0 25
7 23
0 1
6 8
0 6
6 7
10 9
5 14
5 15
2 15
3 11
10 1
3 6
14 6
6 15000
8 16
3 6
3 2
8 9
4 14
7 12
8 11
8 20
6 17
6 2
8 17
12 24
4 18
14 13
13 15000
2 21
5 17
8 5
16 15
24 20
6 1
5 18
2 10
1 15
7 3
13 13
2 5
25 23
13 43
43 15000
48 15
56 2
69 25
79 24
22 21
45 23
82 13
53 13
12 21
77 24
43 9
22 7
13 20
20 15000
16 13
35 3
27 25
1 25
24 25
14 3
23 7
39 11
32 10
33 14
14 12
7 10
13 27
27 15000
13 14
12 18
20 24
44 8
27 2
27 14
35 20
1 2
35 19
6 10
48 2
18 13
13 15
15 15000
23 25
2 25
20 17
27 25
7 18
16 4
22 4
12 21
6 7
11 18
8 24
29 19
13 9
9 15000
13 23
15 13
17 22
14 14
8 11
13 1
9 23
10 4
4 10
18 23
17 19
15 12
13 25
25 15000
38 12
27 7
6 11
30 4
31 23
3 25
27 8
21 21
31 10
15 6
8 12
26 5
13 6
6 15000
7 9
11 16
10 23
0 8
12 10
11 1
1 20
8 19
10 8
4 21
1 1
3 6
13 33
33 15000
20 23
5 5
9 7
55 13
19 18
0 11
8 19
54 9
13 4
3 4
23 25
30 22
13 50
50 15000
29 17
100 16
24 14
42 22
54 6
73 16
59 12
56 2
84 15
92 14
3 9
30 23
13 31
31 15000
57 12
32 20
45 16
2 1
28 25
62 11
15 21
13 4
26 13
41 9
52 14
24 7
13 51
51 15000
11 1
62 20
22 15
8 12
69 19
95 19
35 21
52 4
34 1
49 17
20 9
34 9
13 45
45 15000
52 25
73 6
57 3
58 9
47 22
83 18
82 18
44 15
69 14
23 10
35 25
59 4
13 38
38 15000
45 25
26 13
28 11
61 10
7 20
67 3
65 25
36 20
5 24
24 2
40 6
25 9
13 40
40 15000
62 12
29 9
26 3
18 17
45 25
49 2
67 11
52 7
56 3
69 4
4 25
46 9
13 49
49 15000
89 5
84 5
68 22
44 2
83 17
39 23
1 11
3 1
85 16
88 22
44 20
74 20
13 15
15 15000
17 5
29 16
23 14
11 19
6 10
16 6
14 10
7 10
8 1
28 13
3 13
23 8
13 51
51 15000
66 25
34 25
19 22
67 2
52 20
16 10
54 10
59 11
1 2
26 2
26 12
85 6
13 16
16 15000
1 23
30 20
3 12
9 7
5 20
2 3
20 4
19 21
24 8
13 7
0 7
26 6
13 34
34 15000
29 11
40 10
59 19
25 14
20 25
2 16
50 2
64 15
47 3
40 10
61 9
29 10
13 10
10 15000
7 15
13 15
13 19
7 5
1 5
5 12
12 11
20 9
12 8
13 9
11 19
4 10
13 8
8 15000
3 12
5 6
6 23
15 12
8 11
6 3
7 13
15 12
9 7
8 22
1 6
13 6
13 1
1 15000
2 13
1 4
2 15
1 8
2 9
0 5
1 16
1 17
1 16
0 12
1 12
2 19
13 47
47 15000
16 19
91 2
53 3
77 13
93 21
8 25
63 16
31 10
21 11
13 13
18 8
60 16
13 35
35 15000
68 4
40 24
6 3
1 20
61 23
50 23
35 8
2 13
42 7
40 9
24 21
56 25
13 40
40 15000
36 23
37 7
46 1
19 21
47 5
33 24
24 15
23 1
7 19
47 15
70 7
56 10
13 41
41 15000
7 25
44 22
35 3
9 22
40 23
41 22
47 9
44 11
22 19
65 19
59 16
39 10
12 39
39 15000
39 13
42 25
21 11
46 24
49 15
78 4
5 18
49 6
3 24
1 14
52 22
12 39
39 15000
69 12
66 3
53 15
68 13
74 2
48 7
72 14
4 24
74 14
28 19
50 15
12 7
7 15000
6 22
6 13
2 12
10 5
9 25
3 2
12 8
2 16
9 19
3 23
8 7
12 25
25 15000
12 21
35 13
14 11
38 9
23 1
25 1
46 14
38 19
42 13
30 17
5 21
12 34
34 15000
3 10
55 25
33 24
18 8
67 6
25 7
44 8
16 7
18 12
61 22
26 24
12 18
18 15000
30 14
25 7
16 14
17 16
18 13
18 22
8 20
14 4
3 11
2 20
36 9
12 21
21 15000
26 5
38 23
16 20
7 11
40 12
42 22
37 24
18 11
14 13
19 19
7 2
12 35
35 15000
57 15
56 17
32 20
69 18
49 6
21 8
28 9
32 19
3 16
0 24
17 5
12 14
14 15000
11 2
20 3
1 22
27 22
26 20
3 5
6 2
18 2
10 12
2 19
23 25
12 31
31 15000
29 25
8 20
5 2
60 22
9 2
43 2
4 9
51 20
56 4
51 25
60 6
12 3
3 15000
2 17
0 3
1 11
3 11
4 4
3 19
5 4
1 1
3 21
5 7
6 20
12 13
13 15000
18 16
20 20
17 10
2 22
18 19
17 3
8 25
2 16
4 8
18 20
0 22
12 48
48 15000
73 1
21 25
79 8
25 24
30 12
57 23
91 6
96 2
47 19
3 8
80 14
12 32
32 15000
38 14
37 7
54 9
29 25
6 5
7 24
23 22
44 12
32 8
29 20
44 16
12 46
46 15000
15 21
58 2
63 12
47 18
10 7
71 9
56 1
68 18
30 19
85 24
77 4
12 43
43 15000
61 3
7 5
62 12
68 18
36 17
54 25
79 18
44 15
65 25
24 5
22 9
12 21
21 15000
1 9
11 19
37 21
20 25
0 24
19 22
23 13
12 16
33 12
5 11
34 16
12 37
37 15000
73 10
28 7
40 23
66 11
59 1
23 3
57 21
0 9
60 1
9 8
73 22
12 33
33 15000
47 10
46 10
40 23
30 1
45 11
6 5
20 4
59 13
9 24
38 17
56 9
12 33
33 15000
6 22
19 3
17 15
31 8
20 8
9 15
16 19
44 7
52 2
35 21
13 18
12 4
4 15000
8 8
8 7
1 24
6 18
5 14
5 17
2 3
2 1
2 2
8 24
5 14
12 25
25 15000
29 5
34 2
27 21
17 21
12 4
45 23
20 11
15 23
14 5
16 18
2 13
12 37
37 15000
74 22
14 20
19 21
35 10
10 17
25 14
43 21
9 15
60 13
26 10
16 14
12 14
14 15000
11 16
20 24
0 2
14 21
7 9
16 23
8 8
17 15
28 24
0 8
2 12
11 42
42 15000
53 24
21 12
43 25
19 9
0 15
38 16
14 15
13 22
37 14
13 17
11 6
6 15000
6 1
1 10
5 1
12 20
11 13
12 15
5 14
9 19
2 8
6 5
11 17
17 15000
29 4
19 5
7 7
9 11
34 16
20 25
14 12
14 3
9 20
2 18
11 44
44 15000
70 14
1 6
83 3
14 18
0 13
42 13
24 25
77 10
24 25
87 9
11 4
4 15000
7 9
4 8
7 19
2 5
8 2
5 3
5 17
2 18
6 6
5 22
11 13
13 15000
12 23
13 5
5 16
3 16
16 7
21 10
23 8
17 16
17 3
1 14
11 18
18 15000
23 7
4 21
25 16
11 25
21 1
27 12
28 19
15 16
20 11
21 5
11 42
42 15000
47 2
17 1
14 7
54 2
7 21
45 4
14 7
56 22
3 4
35 10
11 28
28 15000
1 7
30 15
0 10
3 17
20 11
10 20
28 21
15 12
10 15
6 21
11 44
44 15000
28 25
12 15
38 17
5 6
57 11
37 10
53 18
74 8
88 2
47 7
11 10
10 15000
16 13
10 9
13 18
6 9
12 3
12 14
4 14
14 4
11 19
20 18
11 22
22 15000
0 18
26 2
12 11
2 3
13 25
32 6
44 9
18 9
15 19
22 13
11 26
26 15000
6 25
35 21
40 13
51 11
38 13
48 25
2 3
39 16
25 5
30 6
11 2
2 15000
0 22
3 24
4 24
4 2
0 12
3 12
1 10
4 4
4 25
0 12
11 22
22 15000
25 15
26 12
34 15
40 15
15 22
32 17
44 8
23 9
6 25
35 13
11 21
21 15000
28 4
18 24
29 1
8 20
13 4
20 4
40 19
13 2
29 2
25 7
11 36
36 15000
45 17
67 13
8 22
62 22
72 5
61 15
41 2
5 6
23 21
43 5
11 37
37 15000
23 17
44 9
44 8
61 16
63 21
6 7
65 22
57 12
60 7
47 17
11 38
38 15000
20 22
29 15
11 17
71 22
36 14
59 16
53 5
18 17
1 2
50 13
11 1
1 15000
0 5
2 22
2 17
2 14
2 14
1 4
0 18
1 20
1 5
0 17
11 8
8 15000
16 2
11 20
12 25
16 25
6 6
3 19
3 12
0 3
2 25
4 6
11 32
32 15000
1 10
43 1
25 4
19 25
17 6
1 1
1 8
39 11
49 22
19 11
10 32
32 15000
19 24
9 6
8 15
44 15
31 11
41 8
55 7
20 17
57 15
10 29
29 15000
45 1
19 7
4 10
4 15
36 18
57 19
1 25
37 17
9 9
10 39
39 15000
20 6
36 3
18 24
42 5
24 23
77 3
6 22
75 22
76 4
10 5
5 15000
2 10
3 24
2 23
1 23
3 3
8 17
3 11
2 24
6 2
10 39
39 15000
72 16
66 3
51 23
1 14
3 10
17 13
56 4
59 5
17 21
10 14
14 15000
16 14
6 11
22 6
24 11
1 25
18 14
28 5
9 9
4 21
10 17
17 15000
24 19
25 7
20 2
9 6
12 17
0 14
1 17
30 7
22 2
10 29
29 15000
25 7
15 20
2 12
12 21
40 24
41 9
26 11
29 21
57 8
10 5
5 15000
1 17
4 1
5 20
3 3
10 14
0 8
2 12
9 18
0 1
10 38
38 15000
15 23
45 1
67 8
42 13
74 6
42 12
17 14
52 5
29 6
10 11
11 15000
3 8
5 2
7 10
15 3
16 3
6 23
13 2
20 13
1 24
10 8
8 15000
7 6
12 20
1 8
6 1
6 7
2 12
8 15
16 9
12 9
10 24
24 15000
16 14
25 11
14 15
38 2
38 23
0 2
0 8
23 17
39 15
10 4
4 15000
1 4
4 8
4 16
1 14
0 2
3 24
8 10
8 20
7 16
10 13
13 15000
12 18
25 25
3 2
22 1
3 9
2 24
25 19
14 18
23 25
10 36
36 15000
39 24
60 21
54 4
11 25
67 3
50 7
19 12
24 2
33 15
10 20
20 15000
25 10
29 22
31 6
32 21
13 1
15 18
9 23
2 20
5 17
10 31
31 15000
53 16
8 15
35 5
47 13
42 7
60 17
24 14
8 12
17 18
10 5
5 15000
0 18
8 20
5 7
7 24
1 12
8 2
6 6
4 25
4 11
10 30
30 15000
11 18
40 20
47 23
35 23
30 10
40 15
44 11
26 1
15 4
9 3
3 15000
3 5
3 12
4 16
0 14
2 25
6 15
4 18
5 12
9 12
12 15000
20 22
2 6
5 21
20 14
5 17
13 4
19 7
0 24
9 21
21 15000
38 9
5 7
20 18
27 25
23 25
0 7
31 24
33 9
9 9
9 15000
1 16
2 5
1 3
4 17
12 18
8 9
5 13
8 2
9 20
20 15000
20 25
21 12
7 19
35 18
36 23
16 7
4 19
36 22
9 17
17 15000
12 1
20 21
18 4
17 21
8 8
22 10
18 24
23 9
9 36
36 15000
19 7
17 12
15 5
11 17
55 17
54 2
17 2
56 16
9 16
16 15000
8 9
31 10
20 13
32 13
28 3
12 14
17 21
13 22
9 9
9 15000
9 22
13 14
14 15
16 24
12 20
13 18
14 22
18 19
9 15
15 15000
26 24
8 19
26 12
21 25
5 9
5 19
0 21
29 3
9 21
21 15000
3 16
41 16
0 11
23 16
1 20
6 20
30 13
6 15
9 17
17 15000
8 1
22 10
31 15
19 23
17 1
18 5
7 18
5 20
9 31
31 15000
31 11
61 19
57 2
1 15
53 4
35 17
54 4
18 21
9 6
6 15000
10 23
12 10
3 14
12 15
2 15
1 11
7 20
2 19
9 31
31 15000
27 20
60 3
41 15
49 13
31 3
35 12
30 8
5 25
9 20
20 15000
12 21
17 24
31 2
24 22
34 21
6 8
7 13
36 13
9 12
12 15000
24 23
21 7
11 4
11 4
17 12
13 20
12 3
7 8
9 3
3 15000
1 22
5 20
1 24
3 13
3 9
3 4
0 7
2 20
8 29
29 15000
0 9
27 24
27 3
35 25
22 24
32 9
31 15
8 13
13 15000
6 25
5 25
22 5
9 8
10 15
5 12
5 15
8 4
4 15000
1 3
7 14
2 5
3 13
0 17
3 12
1 21
8 14
14 15000
20 3
21 4
0 1
21 17
15 24
24 21
10 3
8 10
10 15000
9 8
10 12
9 15
15 15
3 24
12 19
0 7
8 22
22 15000
1 24
42 13
38 21
2 12
36 23
1 19
13 24
8 30
30 15000
19 20
43 20
36 3
0 1
42 17
18 25
33 12
8 24
24 15000
42 23
11 20
15 12
8 24
5 4
13 11
30 17
8 16
16 15000
29 24
9 25
12 15
17 7
19 19
17 19
17 9
8 16
16 15000
14 11
23 10
24 13
7 21
4 22
26 9
24 23
8 6
6 15000
9 17
2 1
9 19
12 18
3 10
5 25
1 7
8 30
30 15000
59 9
1 10
22 2
50 17
15 10
19 25
32 23
8 17
17 15000
11 19
9 23
1 6
16 13
15 19
2 15
19 2
8 9
9 15000
15 9
4 2
18 3
0 19
10 6
4 10
6 24
8 2
2 15000
2 20
2 19
2 24
4 11
0 2
0 10
0 2
8 8
8 15000
4 9
11 22
7 16
14 17
13 19
11 15
15 5
7 1
1 15000
2 9
2 14
1 4
0 3
2 24
1 21
7 10
10 15000
9 25
15 12
8 18
16 19
0 7
1 21
7 25
25 15000
31 10
26 16
47 18
47 10
35 3
1 21
7 15
15 15000
3 20
12 1
19 9
14 3
19 7
22 3
7 13
13 15000
25 12
0 3
23 24
7 20
26 14
24 15
7 25
25 15000
17 17
8 18
50 18
31 8
2 20
22 18
7 12
12 15000
12 1
21 17
2 4
2 17
8 16
16 23
7 9
9 15000
1 13
12 23
5 25
16 25
17 14
2 7
7 22
22 15000
15 3
5 5
42 5
35 24
15 10
17 24
7 17
17 15000
25 16
8 10
19 1
31 6
12 9
20 14
7 22
22 15000
35 4
32 8
35 16
26 18
9 15
6 2
7 8
8 15000
10 12
9 18
4 4
12 8
0 15
13 10
7 17
17 15000
6 20
13 22
4 5
26 9
33 3
8 25
7 6
6 15000
1 16
6 22
11 13
3 24
9 24
9 16
6 16
16 15000
25 5
1 3
1 23
2 7
29 6
6 2
2 15000
2 14
0 25
4 3
3 10
2 17
6 18
18 15000
19 6
31 1
30 14
18 2
33 23
6 12
12 15000
9 3
11 9
1 20
4 7
7 3
6 3
3 15000
5 4
4 10
6 20
6 20
1 4
6 19
19 15000
11 4
15 8
24 15
34 10
6 14
6 7
7 15000
10 24
14 5
8 21
11 8
13 20
6 17
17 15000
14 4
9 1
32 11
27 14
10 20
6 18
18 15000
28 2
28 12
35 15
11 21
2 21
6 4
4 15000
4 1
2 12
1 5
1 8
6 11
6 8
8 15000
12 12
1 19
0 13
8 9
6 5
6 13
13 15000
4 19
15 1
15 15
14 2
3 17
5 19
19 15000
33 3
23 12
9 2
24 20
5 7
7 15000
14 6
5 10
13 4
1 2
5 12
12 15000
21 16
24 17
9 25
19 24
5 7
7 15000
2 8
7 3
4 22
11 4
5 20
20 15000
24 11
31 18
18 4
8 12
5 3
3 15000
2 3
4 24
5 18
2 17
5 17
17 15000
18 14
22 25
15 12
8 16
5 18
18 15000
15 12
22 24
29 18
5 3
5 2
2 15000
2 12
2 2
4 12
3 25
5 13
13 15000
12 25
10 23
25 19
8 25
4 11
11 15000
17 20
11 16
20 8
4 3
3 15000
3 20
3 8
5 14
4 1
1 15000
0 23
0 9
1 17
4 2
2 15000
2 13
4 4
1 7
4 4
4 15000
5 6
3 3
2 1
4 6
6 15000
1 8
11 25
12 10
4 6
6 15000
9 23
5 12
6 8
4 8
8 15000
6 24
13 3
13 16
3 5
5 15000
5 23
3 17
3 4
4 15000
3 19
0 7
3 12
12 15000
21 17
5 21
3 11
11 15000
16 5
13 12
3 9
9 15000
15 8
10 8
3 9
9 15000
1 17
2 22
2 6
6 15000
11 25
2 4
4 15000
2 18
2 4
4 15000
5 14
2 5
5 15000
2 2
1 1
1 15000
1 4
4 15000
-1 -1
