Capacidad de la mochila,Cantidad de ítems,Complejidad teórica,Tiempos buenos poda 1,Nodos accedidos
84,25,8.38861e+08,559389489,33554433
71,25,8.38861e+08,531305984,33554433
95,25,8.38861e+08,536747855,33554433
69,25,8.38861e+08,543584310,33554433
44,25,8.38861e+08,539251202,33554419
69,25,8.38861e+08,632888684,33554433
91,25,8.38861e+08,643505782,33554433
70,25,8.38861e+08,666511626,33554433
45,25,8.38861e+08,642076335,33554433
61,25,8.38861e+08,641987514,33554433
44,25,8.38861e+08,537107334,33554405
94,25,8.38861e+08,546007216,33554433
1,25,8.38861e+08,590744641,33541639
40,25,8.38861e+08,566021247,33554431
94,25,8.38861e+08,550249618,33554433
51,25,8.38861e+08,590921066,33554433
33,25,8.38861e+08,641521838,33554433
60,25,8.38861e+08,641834012,33554431
98,25,8.38861e+08,686579389,33554433
22,25,8.38861e+08,644620491,33554433
67,25,8.38861e+08,573924468,33554433
73,25,8.38861e+08,546525040,33554433
70,25,8.38861e+08,577435776,33554433
39,25,8.38861e+08,549338297,33554433
99,25,8.38861e+08,561775825,33554433
80,25,8.38861e+08,579895395,33554433
38,25,8.38861e+08,749549714,33554433
85,25,8.38861e+08,654365529,33554433
40,25,8.38861e+08,619968940,33554433
91,25,8.38861e+08,541876055,33554433
95,25,8.38861e+08,538983048,33554433
99,25,8.38861e+08,534922172,33554433
27,25,8.38861e+08,538517964,33552879
82,25,8.38861e+08,531267429,33554433
36,25,8.38861e+08,530851498,33554433
56,25,8.38861e+08,578076409,33554433
4,25,8.38861e+08,541912609,33553101
95,25,8.38861e+08,580276097,33554433
49,25,8.38861e+08,545446044,33554433
95,25,8.38861e+08,562518041,33554433
25,25,8.38861e+08,590940696,33554433
68,25,8.38861e+08,607075920,33554433
15,25,8.38861e+08,606051074,33554433
27,25,8.38861e+08,578761121,33554433
14,25,8.38861e+08,562835059,33554433
2,25,8.38861e+08,558645749,32468959
30,25,8.38861e+08,553331814,33554433
46,25,8.38861e+08,592798609,33554433
82,25,8.38861e+08,557364086,33554433
13,25,8.38861e+08,560799999,33554429
78,24,4.02653e+08,293531659,16777217
7,24,4.02653e+08,268380680,16773373
80,24,4.02653e+08,290321914,16777217
47,24,4.02653e+08,296194654,16777217
31,24,4.02653e+08,302174470,16777217
19,24,4.02653e+08,276519948,16777217
4,24,4.02653e+08,268298247,16777213
14,24,4.02653e+08,268425065,16777211
85,24,4.02653e+08,270048504,16777217
42,24,4.02653e+08,281849142,16777217
68,24,4.02653e+08,269098009,16777217
21,24,4.02653e+08,268016238,16777159
39,24,4.02653e+08,270766712,16777217
74,24,4.02653e+08,273752050,16777217
50,24,4.02653e+08,270321122,16777217
32,24,4.02653e+08,274343794,16777217
41,24,4.02653e+08,312654253,16777217
65,24,4.02653e+08,322849132,16777217
95,24,4.02653e+08,321204674,16777217
30,24,4.02653e+08,322293419,16777217
9,24,4.02653e+08,322518466,16777217
89,24,4.02653e+08,321757097,16777217
88,24,4.02653e+08,301519838,16777217
32,24,4.02653e+08,269323697,16777217
13,24,4.02653e+08,269204357,16777217
55,24,4.02653e+08,266802679,16777217
13,24,4.02653e+08,269025458,16777217
2,24,4.02653e+08,267473948,16771641
24,24,4.02653e+08,267450469,16777217
7,24,4.02653e+08,268501160,16777217
73,24,4.02653e+08,267830579,16777217
32,24,4.02653e+08,301242297,16777217
71,24,4.02653e+08,268881778,16777217
57,24,4.02653e+08,266768641,16777217
96,24,4.02653e+08,266270920,16777217
22,24,4.02653e+08,273599464,16777217
60,24,4.02653e+08,270839762,16777217
37,24,4.02653e+08,284012218,16777217
19,24,4.02653e+08,330176355,16777217
80,24,4.02653e+08,340984334,16777217
30,24,4.02653e+08,349411311,16777217
85,24,4.02653e+08,322640457,16777215
62,24,4.02653e+08,323939419,16777217
73,24,4.02653e+08,324233613,16777217
75,24,4.02653e+08,269619093,16777217
91,24,4.02653e+08,271267411,16777217
66,24,4.02653e+08,269955353,16777217
62,24,4.02653e+08,266523347,16777217
84,23,1.92938e+08,133234852,8388609
18,23,1.92938e+08,135884113,8388609
60,23,1.92938e+08,135698445,8388609
81,23,1.92938e+08,134114226,8388609
51,23,1.92938e+08,134573651,8388609
70,23,1.92938e+08,135557797,8388609
51,23,1.92938e+08,136145746,8388605
87,23,1.92938e+08,136337389,8388609
24,23,1.92938e+08,136214736,8388609
33,23,1.92938e+08,136035737,8388535
14,23,1.92938e+08,133717966,8388609
32,23,1.92938e+08,134552141,8388609
29,23,1.92938e+08,135175706,8388609
60,23,1.92938e+08,134991300,8388609
13,23,1.92938e+08,154641721,8388265
58,23,1.92938e+08,170523061,8388609
8,23,1.92938e+08,174642194,8388609
73,23,1.92938e+08,176326976,8388609
63,23,1.92938e+08,163539561,8388609
62,23,1.92938e+08,162296721,8388609
61,23,1.92938e+08,171615298,8388609
29,23,1.92938e+08,175816920,8388609
76,23,1.92938e+08,173582033,8388609
29,23,1.92938e+08,160810601,8388207
50,23,1.92938e+08,172069177,8388609
3,23,1.92938e+08,175685124,8388561
87,23,1.92938e+08,157429225,8388583
21,23,1.92938e+08,133924998,8388605
49,23,1.92938e+08,147312966,8388609
60,23,1.92938e+08,152766265,8388505
78,23,1.92938e+08,138341476,8388609
19,23,1.92938e+08,133276974,8388609
42,23,1.92938e+08,143824567,8388609
25,23,1.92938e+08,143578598,8388609
63,23,1.92938e+08,134628044,8388609
52,23,1.92938e+08,143153605,8388609
33,23,1.92938e+08,154706818,8388609
11,23,1.92938e+08,135937906,8388609
21,23,1.92938e+08,134789579,8388609
83,23,1.92938e+08,150796451,8388609
62,23,1.92938e+08,149736179,8388609
75,23,1.92938e+08,134204926,8388609
31,23,1.92938e+08,134273171,8388609
1,23,1.92938e+08,140449947,7572779
26,23,1.92938e+08,147628028,8388609
18,23,1.92938e+08,146375650,8388609
6,22,9.22747e+07,74415108,4189079
16,22,9.22747e+07,72380239,4194305
36,22,9.22747e+07,72330151,4194305
20,22,9.22747e+07,74689283,4194305
85,22,9.22747e+07,81071378,4194305
1,22,9.22747e+07,80597162,3576869
49,22,9.22747e+07,87957699,4194305
73,22,9.22747e+07,83727245,4194305
39,22,9.22747e+07,80466286,4194305
9,22,9.22747e+07,80429364,4194305
36,22,9.22747e+07,80557094,4194305
49,22,9.22747e+07,82247203,4194305
29,22,9.22747e+07,81155745,4194305
85,22,9.22747e+07,81031397,4194305
4,22,9.22747e+07,80960677,4191641
40,22,9.22747e+07,80874010,4194305
17,22,9.22747e+07,80859537,4194297
8,22,9.22747e+07,83727770,4194305
32,22,9.22747e+07,90789862,4194305
29,22,9.22747e+07,81113347,4194305
5,22,9.22747e+07,80977103,4194305
39,22,9.22747e+07,80865622,4194305
87,22,9.22747e+07,81849878,4194295
36,22,9.22747e+07,80296926,4194305
41,22,9.22747e+07,80511595,4194305
40,22,9.22747e+07,80331627,4194305
33,22,9.22747e+07,80421377,4194305
71,22,9.22747e+07,80319355,4194305
64,22,9.22747e+07,80559290,4194305
48,22,9.22747e+07,80524956,4194305
32,22,9.22747e+07,80733338,4194305
88,22,9.22747e+07,80506503,4194305
86,22,9.22747e+07,80434183,4194305
31,22,9.22747e+07,80543736,4194305
4,22,9.22747e+07,80553823,4194305
32,22,9.22747e+07,80486812,4194305
69,22,9.22747e+07,80668507,4194305
52,22,9.22747e+07,82268026,4194305
12,22,9.22747e+07,88576140,4194305
36,22,9.22747e+07,81635314,4194305
48,22,9.22747e+07,80257460,4194299
77,22,9.22747e+07,80261070,4194305
47,22,9.22747e+07,80282942,4194305
63,22,9.22747e+07,71008518,4194305
62,21,4.40402e+07,34961260,2097153
30,21,4.40402e+07,34234455,2097153
17,21,4.40402e+07,34171968,2097139
67,21,4.40402e+07,34094986,2097153
58,21,4.40402e+07,35036455,2097153
77,21,4.40402e+07,34735465,2097153
25,21,4.40402e+07,34449131,2097153
14,21,4.40402e+07,34194085,2097153
66,21,4.40402e+07,34512173,2097153
73,21,4.40402e+07,34250950,2097153
36,21,4.40402e+07,36044768,2097153
81,21,4.40402e+07,35043881,2097153
16,21,4.40402e+07,34704384,2097103
30,21,4.40402e+07,34554302,2097153
52,21,4.40402e+07,33893748,2097149
64,21,4.40402e+07,33805154,2097153
77,21,4.40402e+07,34672218,2097153
27,21,4.40402e+07,34549411,2097153
83,21,4.40402e+07,34313636,2097153
22,21,4.40402e+07,34224851,2097145
32,21,4.40402e+07,34141690,2097153
10,21,4.40402e+07,33993609,2097153
4,21,4.40402e+07,35068140,2096841
55,21,4.40402e+07,34222162,2097153
82,21,4.40402e+07,34920486,2097153
52,21,4.40402e+07,33989738,2097153
50,21,4.40402e+07,34345447,2097153
17,21,4.40402e+07,34301203,2097153
31,21,4.40402e+07,34600697,2097153
41,21,4.40402e+07,34272984,2097153
63,21,4.40402e+07,34277904,2097153
46,21,4.40402e+07,34817845,2097153
51,21,4.40402e+07,34354518,2097153
70,21,4.40402e+07,33821251,2097153
79,21,4.40402e+07,33419728,2097153
66,21,4.40402e+07,33596322,2097153
51,21,4.40402e+07,34088735,2097153
72,21,4.40402e+07,33795499,2097153
64,21,4.40402e+07,34533754,2097153
4,21,4.40402e+07,33785150,2097125
3,21,4.40402e+07,34295823,2097139
6,21,4.40402e+07,34063937,2095989
5,20,2.09715e+07,17221187,1048577
37,20,2.09715e+07,17522543,1048577
18,20,2.09715e+07,17216396,1048577
6,20,2.09715e+07,17216838,1048555
25,20,2.09715e+07,17022919,1048577
10,20,2.09715e+07,17223350,1048557
30,20,2.09715e+07,16907050,1048577
10,20,2.09715e+07,17219732,1048577
78,20,2.09715e+07,17385376,1048577
48,20,2.09715e+07,17205548,1048577
10,20,2.09715e+07,17065867,1048577
39,20,2.09715e+07,17637037,1048577
79,20,2.09715e+07,17336635,1048577
15,20,2.09715e+07,17287934,1048577
30,20,2.09715e+07,17028686,1048577
79,20,2.09715e+07,17474411,1048577
48,20,2.09715e+07,17135115,1048577
10,20,2.09715e+07,17186219,1048577
13,20,2.09715e+07,17051304,1048577
31,20,2.09715e+07,17111398,1048577
28,20,2.09715e+07,16997481,1048577
57,20,2.09715e+07,17760495,1048577
49,20,2.09715e+07,16885225,1048577
9,20,2.09715e+07,17118638,1048577
71,20,2.09715e+07,17479525,1048575
22,20,2.09715e+07,17587587,1048577
45,20,2.09715e+07,16958007,1048577
59,20,2.09715e+07,17152877,1048577
79,20,2.09715e+07,17026954,1048577
62,20,2.09715e+07,17322366,1048539
20,20,2.09715e+07,16991540,1048577
3,20,2.09715e+07,17053512,1048577
28,20,2.09715e+07,17578847,1048577
30,20,2.09715e+07,17272318,1048577
34,20,2.09715e+07,16894446,1048577
62,20,2.09715e+07,17195699,1048577
44,20,2.09715e+07,17041543,1048577
1,20,2.09715e+07,15339872,885583
44,20,2.09715e+07,16790109,1048577
76,20,2.09715e+07,16999310,1048577
53,19,9.96147e+06,8399410,524289
64,19,9.96147e+06,8805717,524289
46,19,9.96147e+06,8504400,523895
67,19,9.96147e+06,8823485,524289
58,19,9.96147e+06,8707569,524289
72,19,9.96147e+06,8438369,524289
26,19,9.96147e+06,8611369,524233
44,19,9.96147e+06,8396367,524289
50,19,9.96147e+06,8623907,524289
43,19,9.96147e+06,8398678,524289
22,19,9.96147e+06,9154116,524289
3,19,9.96147e+06,8366361,523295
51,19,9.96147e+06,8607070,524285
72,19,9.96147e+06,8740054,524289
61,19,9.96147e+06,8367452,524289
12,19,9.96147e+06,8869207,524243
43,19,9.96147e+06,8540521,524289
52,19,9.96147e+06,8914092,524289
41,19,9.96147e+06,8423161,524289
64,19,9.96147e+06,8543027,524289
30,19,9.96147e+06,8819820,524289
11,19,9.96147e+06,8397313,524289
26,19,9.96147e+06,8740151,524289
3,19,9.96147e+06,8525588,523783
47,19,9.96147e+06,8590992,524289
17,19,9.96147e+06,8509520,524271
39,19,9.96147e+06,8415384,524289
44,19,9.96147e+06,8770491,524289
46,19,9.96147e+06,8356207,524289
58,19,9.96147e+06,8614716,524289
29,19,9.96147e+06,8387823,524289
65,19,9.96147e+06,9043327,524289
20,19,9.96147e+06,8499395,524289
23,19,9.96147e+06,8534758,524287
29,19,9.96147e+06,8597433,524289
63,19,9.96147e+06,8436150,524289
18,19,9.96147e+06,9948632,524289
33,19,9.96147e+06,8982097,524289
30,18,4.71859e+06,4239037,262145
38,18,4.71859e+06,4551060,262145
8,18,4.71859e+06,5647366,262143
28,18,4.71859e+06,4255679,262145
31,18,4.71859e+06,4281992,262145
39,18,4.71859e+06,4792366,262145
41,18,4.71859e+06,6382125,262133
56,18,4.71859e+06,7167014,262145
53,18,4.71859e+06,5414837,262145
16,18,4.71859e+06,5604319,262145
61,18,4.71859e+06,4630456,262145
70,18,4.71859e+06,4548391,262145
58,18,4.71859e+06,4980753,262145
23,18,4.71859e+06,4277107,262145
54,18,4.71859e+06,4294872,262145
14,18,4.71859e+06,5261154,262145
34,18,4.71859e+06,5255752,262145
70,18,4.71859e+06,4965323,262145
62,18,4.71859e+06,5099462,262145
18,18,4.71859e+06,4276116,262137
67,18,4.71859e+06,4406309,262145
70,18,4.71859e+06,4604389,262145
13,18,4.71859e+06,4975415,262145
53,18,4.71859e+06,6282883,262145
63,18,4.71859e+06,5182132,262145
60,18,4.71859e+06,4615780,262145
67,18,4.71859e+06,5090000,262145
2,18,4.71859e+06,4882078,261909
41,18,4.71859e+06,5250636,262145
42,18,4.71859e+06,4438126,262143
35,18,4.71859e+06,4566471,262145
50,18,4.71859e+06,4992720,262145
23,18,4.71859e+06,5468566,262145
50,18,4.71859e+06,4296540,262145
6,18,4.71859e+06,4766401,262135
1,18,4.71859e+06,3863061,183783
37,17,2.22822e+06,2310181,131073
51,17,2.22822e+06,2752113,131073
26,17,2.22822e+06,2727537,131073
39,17,2.22822e+06,2263860,131073
2,17,2.22822e+06,2677772,121657
66,17,2.22822e+06,2285138,131073
37,17,2.22822e+06,2124459,131073
58,17,2.22822e+06,2153924,131073
38,17,2.22822e+06,2133816,131073
60,17,2.22822e+06,2177113,131073
18,17,2.22822e+06,2451783,131073
60,17,2.22822e+06,2594233,131073
38,17,2.22822e+06,2505808,131073
56,17,2.22822e+06,2631289,131073
51,17,2.22822e+06,2137139,131073
25,17,2.22822e+06,2143768,131073
47,17,2.22822e+06,2144194,131071
64,17,2.22822e+06,2197424,131073
23,17,2.22822e+06,2857369,131073
2,17,2.22822e+06,2301741,131065
1,17,2.22822e+06,2289173,128205
13,17,2.22822e+06,2683477,131073
46,17,2.22822e+06,2916093,131073
32,17,2.22822e+06,2757437,131073
10,17,2.22822e+06,2803572,131073
6,17,2.22822e+06,2251481,131073
36,17,2.22822e+06,2176795,131073
3,17,2.22822e+06,2139996,130969
35,17,2.22822e+06,2140987,131073
56,17,2.22822e+06,2178841,131073
22,17,2.22822e+06,2411637,131073
17,17,2.22822e+06,2771271,131073
10,17,2.22822e+06,2411542,131073
60,17,2.22822e+06,2433299,131073
36,16,1.04858e+06,1062357,65537
57,16,1.04858e+06,1080961,65537
62,16,1.04858e+06,1065363,65537
24,16,1.04858e+06,1114401,65537
63,16,1.04858e+06,1073013,65537
34,16,1.04858e+06,1072189,65535
17,16,1.04858e+06,1126273,65537
5,16,1.04858e+06,1057638,65469
43,16,1.04858e+06,1468891,65537
28,16,1.04858e+06,1445782,65537
8,16,1.04858e+06,1217609,65537
35,16,1.04858e+06,1194686,65509
37,16,1.04858e+06,1116580,65537
37,16,1.04858e+06,1060314,65537
19,16,1.04858e+06,1069173,65537
25,16,1.04858e+06,1061834,65537
56,16,1.04858e+06,1061218,65537
10,16,1.04858e+06,1070360,65537
37,16,1.04858e+06,1125958,65537
60,16,1.04858e+06,1281048,65537
23,16,1.04858e+06,1066231,65529
7,16,1.04858e+06,1304299,65533
31,16,1.04858e+06,1346847,65527
15,16,1.04858e+06,1120049,65537
61,16,1.04858e+06,1060366,65537
23,16,1.04858e+06,1069200,65537
30,16,1.04858e+06,1062244,65537
32,16,1.04858e+06,1071890,65537
50,16,1.04858e+06,1063250,65535
18,16,1.04858e+06,1064203,65527
30,16,1.04858e+06,1064415,65537
38,16,1.04858e+06,1068978,65537
20,15,491520,530722,32769
5,15,491520,596243,32765
28,15,491520,536171,32769
34,15,491520,532951,32769
19,15,491520,530036,32769
22,15,491520,537253,32769
5,15,491520,531509,32755
46,15,491520,534668,32769
49,15,491520,531170,32769
30,15,491520,530063,32769
3,15,491520,535111,32341
58,15,491520,531280,32769
16,15,491520,540915,32769
55,15,491520,529175,32769
12,15,491520,537249,32769
41,15,491520,531031,32769
16,15,491520,534874,32769
5,15,491520,528645,32769
29,15,491520,534908,32769
46,15,491520,534082,32769
58,15,491520,566075,32769
43,15,491520,530722,32769
3,15,491520,531321,32275
3,15,491520,530805,32751
44,15,491520,536095,32767
7,15,491520,529639,32767
33,15,491520,537837,32769
44,15,491520,532106,32769
18,15,491520,529806,32769
34,15,491520,530339,32769
48,14,229376,265878,16385
29,14,229376,264837,16385
51,14,229376,265255,16385
7,14,229376,265839,16377
24,14,229376,265119,16385
12,14,229376,264685,16383
7,14,229376,271328,16379
27,14,229376,265172,16385
17,14,229376,265496,16385
51,14,229376,266285,16385
19,14,229376,264430,16385
20,14,229376,270675,16385
44,14,229376,266405,16385
42,14,229376,265625,16385
44,14,229376,265893,16385
22,14,229376,266133,16369
20,14,229376,270212,16385
54,14,229376,265744,16385
55,14,229376,265429,16385
49,14,229376,273247,16385
18,14,229376,309833,16385
35,14,229376,314323,16385
28,14,229376,264458,16385
10,14,229376,271036,16385
35,14,229376,265320,16385
5,14,229376,262633,15929
6,14,229376,265721,16385
13,14,229376,270009,16385
43,13,106496,132469,8193
20,13,106496,133101,8193
27,13,106496,133069,8193
15,13,106496,132391,8193
9,13,106496,132669,8193
25,13,106496,132680,8193
6,13,106496,138124,8185
33,13,106496,132878,8193
50,13,106496,133083,8193
31,13,106496,132505,8193
51,13,106496,139814,8193
45,13,106496,132516,8193
38,13,106496,132540,8193
40,13,106496,140751,8193
49,13,106496,133192,8193
15,13,106496,132461,8193
51,13,106496,132345,8193
16,13,106496,132775,8191
34,13,106496,132337,8193
10,13,106496,132813,8193
8,13,106496,132908,8193
1,13,106496,132950,8193
47,13,106496,132995,8193
35,13,106496,132618,8193
40,13,106496,132307,8193
41,13,106496,133956,8193
39,12,49152,68054,4097
39,12,49152,66677,4097
7,12,49152,66340,4097
25,12,49152,66269,4097
34,12,49152,66269,4097
18,12,49152,66392,4097
21,12,49152,66418,4097
35,12,49152,66199,4095
14,12,49152,66281,4097
31,12,49152,66459,4097
3,12,49152,66587,4097
13,12,49152,66508,4097
48,12,49152,67032,4097
32,12,49152,66603,4097
46,12,49152,66553,4097
43,12,49152,66511,4097
21,12,49152,66540,4095
37,12,49152,88194,4097
33,12,49152,76542,4097
33,12,49152,66191,4097
4,12,49152,66072,4097
25,12,49152,66481,4097
37,12,49152,66358,4097
14,12,49152,66394,4097
42,11,22528,33437,2049
6,11,22528,33482,2049
17,11,22528,33546,2049
44,11,22528,33426,2047
4,11,22528,33438,2049
13,11,22528,33148,2049
18,11,22528,33232,2049
42,11,22528,33399,2049
28,11,22528,33778,2049
44,11,22528,33369,2049
10,11,22528,33703,2049
22,11,22528,33914,2043
26,11,22528,33581,2049
2,11,22528,33514,1951
22,11,22528,33543,2049
21,11,22528,33230,2049
36,11,22528,33508,2049
37,11,22528,33275,2049
38,11,22528,33296,2049
1,11,22528,33974,1999
8,11,22528,33484,2049
32,11,22528,33304,2049
32,10,10240,16880,1025
29,10,10240,16863,1025
39,10,10240,16806,1025
5,10,10240,16705,1025
39,10,10240,16778,1025
14,10,10240,16923,1025
17,10,10240,16823,1019
29,10,10240,16645,1025
5,10,10240,16922,1023
38,10,10240,16951,1025
11,10,10240,16901,1025
8,10,10240,16991,1025
24,10,10240,17039,1025
4,10,10240,16854,1025
13,10,10240,17040,1025
36,10,10240,16720,1025
20,10,10240,17041,1025
31,10,10240,17176,1025
5,10,10240,17190,1019
30,10,10240,17124,1025
3,9,4608,8813,511
12,9,4608,8775,513
21,9,4608,9055,513
9,9,4608,8545,513
20,9,4608,8576,513
17,9,4608,8705,513
36,9,4608,8394,513
16,9,4608,9050,513
9,9,4608,8471,513
15,9,4608,8614,511
21,9,4608,8476,513
17,9,4608,8693,513
31,9,4608,8969,513
6,9,4608,8541,513
31,9,4608,8473,513
20,9,4608,8481,513
12,9,4608,8560,513
3,9,4608,8462,513
29,8,2048,4413,257
13,8,2048,4438,257
4,8,2048,4383,257
14,8,2048,4443,257
10,8,2048,4331,257
22,8,2048,4282,257
30,8,2048,4438,257
24,8,2048,4307,257
16,8,2048,4337,257
16,8,2048,4271,257
6,8,2048,4397,257
30,8,2048,4315,257
17,8,2048,4377,257
9,8,2048,4498,257
2,8,2048,4285,249
8,8,2048,4362,257
1,7,896,2276,129
10,7,896,2323,129
25,7,896,2255,129
15,7,896,2312,129
13,7,896,2290,129
25,7,896,2238,129
12,7,896,2275,129
9,7,896,2270,129
22,7,896,2270,129
17,7,896,2203,129
22,7,896,2224,129
8,7,896,2308,127
17,7,896,2322,129
6,7,896,2213,129
16,6,384,1250,65
2,6,384,1299,61
18,6,384,1209,65
12,6,384,1250,65
3,6,384,1183,65
19,6,384,1188,65
7,6,384,1248,65
17,6,384,1225,65
18,6,384,1219,65
4,6,384,1373,65
8,6,384,1276,63
13,6,384,1327,65
19,5,160,767,33
7,5,160,773,33
12,5,160,629,33
7,5,160,720,33
20,5,160,668,33
3,5,160,673,33
17,5,160,656,33
18,5,160,628,33
2,5,160,686,33
13,5,160,626,33
11,4,64,499,17
3,4,64,408,17
1,4,64,418,11
2,4,64,411,17
4,4,64,433,17
6,4,64,379,17
6,4,64,365,17
8,4,64,343,17
5,3,24,303,9
4,3,24,331,9
12,3,24,280,9
11,3,24,221,9
9,3,24,271,9
9,3,24,224,9
6,2,8,212,5
4,2,8,140,5
4,2,8,157,5
5,2,8,174,5
1,1,2,146,3
4,1,2,83,3
